\relax 
\@writefile{toc}{\contentsline {section}{\numberline {1}Obiettivi}{1}}
\@writefile{toc}{\contentsline {section}{\numberline {2}Materiale utilizzato}{1}}
\@writefile{toc}{\contentsline {section}{\numberline {3}Layout sperimentale}{2}}
\@writefile{lof}{\contentsline {figure}{\numberline {1}{\ignorespaces Schematizzazione dell'apparato sperimentale e definizioni di base.\relax }}{2}}
\providecommand*\caption@xref[2]{\@setref\relax\@undefined{#1}}
\newlabel{fig:pendolo}{{1}{2}}
\@writefile{toc}{\contentsline {section}{\numberline {4}Richiami teorici}{2}}
\@writefile{toc}{\contentsline {section}{\numberline {5}Misura del periodo}{3}}
\@writefile{toc}{\contentsline {subsection}{\numberline {5.1}Dipendenza dall'ampiezza}{3}}
\@writefile{toc}{\contentsline {subsubsection}{\numberline {5.1.1}Dati raccolti}{4}}
\newlabel{tab:addlabel}{{\caption@xref {tab:addlabel}{ on input line 165}}{4}}
\@writefile{toc}{\contentsline {section}{\numberline {6}Analisi dei dati}{4}}
\@writefile{toc}{\contentsline {subsection}{\numberline {6.1}Dipendenza dalla massa}{6}}
\@writefile{toc}{\contentsline {subsubsection}{\numberline {6.1.1}Dati raccolti}{6}}
\newlabel{tab:addlabel}{{\caption@xref {tab:addlabel}{ on input line 248}}{6}}
\@writefile{toc}{\contentsline {subsubsection}{\numberline {6.1.2}Analisi dei dati}{6}}
\@writefile{toc}{\contentsline {subsection}{\numberline {6.2}Dipendenza dalla lunghezza}{7}}
\@writefile{toc}{\contentsline {subsubsection}{\numberline {6.2.1}Dati raccolti}{8}}
\newlabel{tab:addlabel}{{\caption@xref {tab:addlabel}{ on input line 319}}{8}}
\@writefile{toc}{\contentsline {section}{\numberline {7}Analisi dei dati}{8}}
\@writefile{toc}{\contentsline {section}{\numberline {8}Conclusioni}{10}}
