\relax 
\@writefile{toc}{\contentsline {section}{\numberline {1}Obiettivi}{1}}
\@writefile{toc}{\contentsline {section}{\numberline {2}Apparato sperimentale}{1}}
\@writefile{toc}{\contentsline {section}{\numberline {3}Richiami teorici}{1}}
\newlabel{eq:eq_moto}{{1}{1}}
\newlabel{eq:legge_oraria_asintotica}{{2}{1}}
\newlabel{eq:curva_risonanza}{{3}{1}}
\@writefile{toc}{\contentsline {section}{\numberline {4}Analisi dei dati}{2}}
\@writefile{toc}{\contentsline {section}{\numberline {5}Conclusioni}{5}}
