\relax 
\@writefile{toc}{\contentsline {section}{\numberline {1}Obiettivi}{1}}
\@writefile{toc}{\contentsline {section}{\numberline {2}Materiale utilizzato}{1}}
\@writefile{toc}{\contentsline {section}{\numberline {3}Richiami teorici}{1}}
\newlabel{eq:equilibrio}{{1}{1}}
\@writefile{toc}{\contentsline {section}{\numberline {4}Dati raccolti}{2}}
\providecommand*\caption@xref[2]{\@setref\relax\@undefined{#1}}
\newlabel{tab:addlabel}{{\caption@xref {tab:addlabel}{ on input line 121}}{2}}
\newlabel{tab:addlabel}{{\caption@xref {tab:addlabel}{ on input line 146}}{3}}
\@writefile{toc}{\contentsline {section}{\numberline {5}Analisi dei dati}{3}}
\newlabel{tab:addlabel}{{\caption@xref {tab:addlabel}{ on input line 165}}{3}}
\@writefile{toc}{\contentsline {section}{\numberline {6}Conclusioni}{3}}
