\relax 
\@writefile{toc}{\contentsline {section}{\numberline {1}Obiettivi}{1}}
\@writefile{toc}{\contentsline {section}{\numberline {2}Materiale utilizzato}{1}}
\@writefile{toc}{\contentsline {section}{\numberline {3}Richiami teorici}{1}}
\newlabel{eq:equilibrio}{{1}{1}}
\@writefile{toc}{\contentsline {section}{\numberline {4}Procedimento}{2}}
\@writefile{toc}{\contentsline {section}{\numberline {5}Dati raccolti}{2}}
\providecommand*\caption@xref[2]{\@setref\relax\@undefined{#1}}
\newlabel{tab:addlabel}{{\caption@xref {tab:addlabel}{ on input line 126}}{3}}
\newlabel{tab:addlabel}{{\caption@xref {tab:addlabel}{ on input line 151}}{4}}
\@writefile{toc}{\contentsline {section}{\numberline {6}Analisi dei dati}{4}}
\newlabel{tab:addlabel}{{\caption@xref {tab:addlabel}{ on input line 170}}{4}}
\@writefile{toc}{\contentsline {section}{\numberline {7}Conclusioni}{6}}
