\relax 
\@writefile{toc}{\contentsline {section}{\numberline {1}Obiettivi}{1}}
\@writefile{toc}{\contentsline {section}{\numberline {2}Materiale utilizzato}{1}}
\@writefile{toc}{\contentsline {section}{\numberline {3}Lancio di un dado 100 e 100000 volte}{1}}
\@writefile{toc}{\contentsline {subsection}{\numberline {3.1}Dati raccolti}{1}}
\@writefile{lot}{\contentsline {table}{\numberline {1}{\ignorespaces Dati raccolti per il lancio di un dado 100 volte}}{1}}
\newlabel{tab:newTable}{{1}{1}}
\@writefile{lot}{\contentsline {table}{\numberline {2}{\ignorespaces Dati raccolti per il lancio di un dado 100000 volte}}{2}}
\newlabel{tab:newTable}{{2}{2}}
\@writefile{toc}{\contentsline {subsection}{\numberline {3.2}Analisi dei dati}{3}}
\@writefile{toc}{\contentsline {subsection}{\numberline {3.3}Conclusioni}{3}}
\@writefile{toc}{\contentsline {section}{\numberline {4}Lancio di 2, 5, 10 dadi 10000 volte}{4}}
\@writefile{toc}{\contentsline {subsection}{\numberline {4.1}Dati raccolti}{4}}
\@writefile{lot}{\contentsline {table}{\numberline {3}{\ignorespaces Dati raccolti per il lancio di 2 dadi 10000 volte}}{4}}
\newlabel{tab:newTable}{{3}{4}}
\@writefile{lot}{\contentsline {table}{\numberline {4}{\ignorespaces Dati raccolti per il lancio di 2 dadi 10000 volte}}{4}}
\newlabel{tab:newTable}{{4}{4}}
\@writefile{lot}{\contentsline {table}{\numberline {5}{\ignorespaces Dati raccolti per il lancio di 10 dadi 10000 volte}}{5}}
\newlabel{tab:newTable}{{5}{5}}
\@writefile{toc}{\contentsline {subsection}{\numberline {4.2}Analisi dei dati}{5}}
\@writefile{toc}{\contentsline {section}{\numberline {5}Lanci di un dado 1000 volte}{7}}
\@writefile{toc}{\contentsline {subsection}{\numberline {5.1}Dati raccolti}{7}}
\@writefile{lot}{\contentsline {table}{\numberline {6}{\ignorespaces Medie di 1000 lanci di 1 dado}}{7}}
\newlabel{tab:newTable}{{6}{7}}
\@writefile{toc}{\contentsline {subsection}{\numberline {5.2}Analisi dei dati}{7}}
