\relax 
\@writefile{toc}{\contentsline {section}{\numberline {1}Obiettivi}{1}}
\@writefile{toc}{\contentsline {section}{\numberline {2}Apparato sperimentale}{1}}
\@writefile{toc}{\contentsline {section}{\numberline {3}Richiami teorici}{1}}
\@writefile{toc}{\contentsline {section}{\numberline {4}Dati raccolti}{2}}
\@writefile{toc}{\contentsline {subsection}{\numberline {4.1}Momento d'inerzia del disco}{2}}
\@writefile{toc}{\contentsline {subsection}{\numberline {4.2}Volano libero di ruotare}{2}}
\@writefile{lof}{\contentsline {figure}{\numberline {1}{\ignorespaces \relax }}{2}}
\@writefile{toc}{\contentsline {subsection}{\numberline {4.3}Volano libero d ruotare con una moneta attaccata}{3}}
\@writefile{lof}{\contentsline {figure}{\numberline {2}{\ignorespaces \relax }}{3}}
\@writefile{toc}{\contentsline {subsection}{\numberline {4.4}Volano soggetto ad una forza esterna}{3}}
\@writefile{lof}{\contentsline {figure}{\numberline {3}{\ignorespaces \relax }}{3}}
\@writefile{toc}{\contentsline {section}{\numberline {5}Analisi dei dati}{4}}
\@writefile{toc}{\contentsline {subsection}{\numberline {5.1}Stima di $\tau _a$}{4}}
\@writefile{lof}{\contentsline {figure}{\numberline {4}{\ignorespaces \relax }}{4}}
\@writefile{lof}{\contentsline {figure}{\numberline {5}{\ignorespaces \relax }}{5}}
\@writefile{toc}{\contentsline {subsection}{\numberline {5.2}Volano soggetto ad una forza esterna}{5}}
\@writefile{lof}{\contentsline {figure}{\numberline {6}{\ignorespaces \relax }}{6}}
\@writefile{toc}{\contentsline {section}{\numberline {6}Conclusioni}{6}}
