\relax 
\@writefile{toc}{\contentsline {section}{\numberline {1}Obiettivi}{1}}
\@writefile{toc}{\contentsline {section}{\numberline {2}Apparato sperimentale}{1}}
\@writefile{toc}{\contentsline {section}{\numberline {3}Richiami teorici}{1}}
\@writefile{toc}{\contentsline {section}{\numberline {4}Dati raccolti}{1}}
\@writefile{lot}{\contentsline {table}{\numberline {1}{\ignorespaces Cilindri\relax }}{2}}
\providecommand*\caption@xref[2]{\@setref\relax\@undefined{#1}}
\newlabel{tab:addlabel}{{1}{2}}
\@writefile{lot}{\contentsline {table}{\numberline {2}{\ignorespaces Prismi a base quadrata\relax }}{2}}
\newlabel{tab:addlabel}{{2}{2}}
\@writefile{lot}{\contentsline {table}{\numberline {3}{\ignorespaces Prisma a base esagonale\relax }}{2}}
\newlabel{tab:addlabel}{{3}{2}}
\@writefile{lot}{\contentsline {table}{\numberline {4}{\ignorespaces Sfere\relax }}{2}}
\newlabel{tab:addlabel}{{4}{2}}
\@writefile{toc}{\contentsline {section}{\numberline {5}Analisi dei dati}{2}}
\newlabel{tab:addlabel}{{\caption@xref {tab:addlabel}{ on input line 137}}{3}}
\newlabel{tab:addlabel}{{\caption@xref {tab:addlabel}{ on input line 152}}{3}}
\@writefile{lot}{\contentsline {table}{\numberline {5}{\ignorespaces Grafico 1\relax }}{4}}
\newlabel{tab:addlabel}{{5}{4}}
\@writefile{lot}{\contentsline {table}{\numberline {6}{\ignorespaces Grafico 2\relax }}{4}}
\newlabel{tab:addlabel}{{6}{4}}
\@writefile{toc}{\contentsline {section}{\numberline {6}Conclusioni}{6}}
