\relax 
\catcode`"\active
\select@language{italian}
\@writefile{toc}{\select@language{italian}}
\@writefile{lof}{\select@language{italian}}
\@writefile{lot}{\select@language{italian}}
\select@language{italian}
\@writefile{toc}{\select@language{italian}}
\@writefile{lof}{\select@language{italian}}
\@writefile{lot}{\select@language{italian}}
\@writefile{lof}{\contentsline {figure}{\numberline {1}{\ignorespaces Schematizzazione dell'apparato sperimentale e definizioni di base.}}{1}}
\newlabel{fig:pendolo}{{1}{1}}
\select@language{italian}
\@writefile{toc}{\select@language{italian}}
\@writefile{lof}{\select@language{italian}}
\@writefile{lot}{\select@language{italian}}
