\relax 
\@writefile{toc}{\contentsline {section}{\numberline {1}Obiettivi}{1}}
\newlabel{eq:pendulum_taylor}{{1}{1}}
\@writefile{toc}{\contentsline {section}{\numberline {2}Apparato sperimentale}{1}}
\@writefile{lof}{\contentsline {figure}{\numberline {1}{\ignorespaces Schematizzazione dell'apparato sperimentale\relax }}{1}}
\providecommand*\caption@xref[2]{\@setref\relax\@undefined{#1}}
\newlabel{fig:pendolo}{{1}{1}}
\@writefile{toc}{\contentsline {section}{\numberline {3}Richiami teorici}{2}}
\@writefile{toc}{\contentsline {section}{\numberline {4}Dati raccolti}{2}}
\@writefile{lot}{\contentsline {table}{\numberline {1}{\ignorespaces Misure del pendolo\relax }}{2}}
\@writefile{lof}{\contentsline {figure}{\numberline {2}{\ignorespaces Misure di velocit\IeC {\`a} in funzione del tempo\relax }}{3}}
\@writefile{lof}{\contentsline {figure}{\numberline {3}{\ignorespaces Misure del periodo in funzione del angolo di oscillazione\relax }}{3}}
\@writefile{toc}{\contentsline {section}{\numberline {5}Analisi dei dati}{4}}
\@writefile{lof}{\contentsline {figure}{\numberline {4}{\ignorespaces Fit grafico di velocit\IeC {\`a} in funzione del tempo\relax }}{4}}
\@writefile{lof}{\contentsline {figure}{\numberline {5}{\ignorespaces Plot del campione limitato di velocit\IeC {\`a} con relativi residui\relax }}{5}}
\@writefile{lof}{\contentsline {figure}{\numberline {6}{\ignorespaces Misure del periodo in funzione del tempo\relax }}{6}}
\@writefile{lof}{\contentsline {figure}{\numberline {7}{\ignorespaces Fit grafico del periodo in funzione dell'ampiezza di oscillazione\relax }}{6}}
\@writefile{toc}{\contentsline {section}{\numberline {6}Conclusioni}{7}}
