\relax 
\@writefile{toc}{\contentsline {section}{\numberline {1}Obiettivi}{1}}
\newlabel{eq:pendulum_taylor}{{1}{1}}
\@writefile{toc}{\contentsline {section}{\numberline {2}Apparato sperimentale}{1}}
\@writefile{lof}{\contentsline {figure}{\numberline {1}{\ignorespaces Schematizzazione dell'apparato sperimentale}}{1}}
\newlabel{fig:pendolo}{{1}{1}}
\@writefile{toc}{\contentsline {section}{\numberline {3}Dati raccolti}{2}}
