\relax 
\@writefile{toc}{\contentsline {section}{\numberline {1}Obiettivi}{1}}
\@writefile{toc}{\contentsline {section}{\numberline {2}Materiale utilizzato}{1}}
\@writefile{toc}{\contentsline {section}{\numberline {3}Dati raccolti}{1}}
\providecommand*\caption@xref[2]{\@setref\relax\@undefined{#1}}
\newlabel{tab:addlabel}{{\caption@xref {tab:addlabel}{ on input line 76}}{1}}
\newlabel{tab:addlabel}{{\caption@xref {tab:addlabel}{ on input line 98}}{2}}
\newlabel{tab:addlabel}{{\caption@xref {tab:addlabel}{ on input line 124}}{2}}
\@writefile{toc}{\contentsline {section}{\numberline {4}Analisi dei dati}{2}}
\newlabel{tab:addlabel}{{\caption@xref {tab:addlabel}{ on input line 174}}{3}}
\@writefile{toc}{\contentsline {section}{\numberline {5}Conclusioni}{3}}
\newlabel{tab:addlabel}{{\caption@xref {tab:addlabel}{ on input line 200}}{3}}
