\relax 
\@writefile{toc}{\contentsline {section}{\numberline {1}Obiettivi}{1}}
\@writefile{toc}{\contentsline {section}{\numberline {2}Materiale utilizzato}{1}}
\@writefile{toc}{\contentsline {section}{\numberline {3}Richiami teorici}{1}}
\@writefile{toc}{\contentsline {section}{\numberline {4}Dati raccolti}{2}}
\providecommand*\caption@xref[2]{\@setref\relax\@undefined{#1}}
\newlabel{tab:addlabel}{{\caption@xref {tab:addlabel}{ on input line 91}}{2}}
\newlabel{tab:addlabel}{{\caption@xref {tab:addlabel}{ on input line 113}}{2}}
\newlabel{tab:addlabel}{{\caption@xref {tab:addlabel}{ on input line 137}}{2}}
\@writefile{toc}{\contentsline {section}{\numberline {5}Analisi dei dati}{2}}
\newlabel{tab:addlabel}{{\caption@xref {tab:addlabel}{ on input line 191}}{4}}
\@writefile{lof}{\contentsline {figure}{\numberline {1}{\ignorespaces In verde le previsioni\relax }}{4}}
\newlabel{tab:addlabel}{{\caption@xref {tab:addlabel}{ on input line 222}}{5}}
\@writefile{toc}{\contentsline {section}{\numberline {6}Conclusioni}{5}}
