\relax 
\catcode`"\active
\select@language{italian}
\@writefile{toc}{\select@language{italian}}
\@writefile{lof}{\select@language{italian}}
\@writefile{lot}{\select@language{italian}}
\select@language{italian}
\@writefile{toc}{\select@language{italian}}
\@writefile{lof}{\select@language{italian}}
\@writefile{lot}{\select@language{italian}}
\@writefile{lof}{\contentsline {figure}{\numberline {1}{\ignorespaces Schematizzazione dell'apparato per la misura dell'indice di rifrazione del plexiglass. L'angolo di incidenza $\theta _{\rm  i}$ (di rifrazione $\theta _{\rm  r}$) \`e l'angolo formato dal raggio luminoso incidente (rifratto) con la normale alla superficie di separazione tra i due mezzi.}}{1}}
\newlabel{fig:plexiglass}{{1}{1}}
\newlabel{eq:diottro}{{2}{1}}
\@writefile{lof}{\contentsline {figure}{\numberline {2}{\ignorespaces Schematizzazione dell'apparato per la misura dell'indice di rifrazione dell'acqua. Le grandezze $q$ e $p$ sono definite, rispettivamente come la distanza dal vertice del diottro della sorgente e dell'immagine (a fuoco sullo schermo).}}{1}}
\newlabel{fig:acqua}{{2}{1}}
\@writefile{toc}{\contentsline {section}{\numberline {1}Appendice: valori tabulati}{1}}
\select@language{italian}
\@writefile{toc}{\select@language{italian}}
\@writefile{lof}{\select@language{italian}}
\@writefile{lot}{\select@language{italian}}
