#Creator: pendulumdriveEventBuffer
#Creation time: Tue Apr  8 15:09:33 2014
#Time	Pos
#[s]	[au]
0.050	460
0.100	455
0.150	455
0.200	451
0.250	452
0.301	453
0.352	452
0.402	455
0.452	458
0.502	459
0.553	465
0.603	467
0.653	472
0.703	477
0.753	479
0.803	485
0.854	488
0.904	490
0.954	493
1.004	491
1.054	494
1.104	493
1.155	489
1.206	490
1.256	486
1.306	481
1.356	478
1.407	472
1.457	469
1.507	465
1.557	460
1.607	458
1.657	456
1.708	452
1.758	452
1.808	450
1.858	452
1.908	454
1.959	454
2.009	459
2.059	463
2.110	465
2.160	471
2.210	473
2.261	480
2.311	484
2.361	485
2.411	491
2.461	491
2.511	493
2.562	495
2.612	491
2.662	494
2.712	491
2.762	486
2.813	485
2.863	479
2.913	474
2.963	472
3.014	465
3.064	462
3.115	459
3.165	454
3.215	453
3.265	453
3.315	450
3.365	452
3.416	451
3.466	455
3.516	457
3.566	460
3.616	465
3.667	468
3.717	472
3.767	478
3.817	481
3.867	486
3.918	489
3.969	489
4.019	494
4.069	492
4.119	493
4.169	494
4.219	489
4.270	489
4.320	486
4.370	480
4.420	478
4.470	471
4.521	468
4.571	465
4.621	459
4.671	458
4.721	455
4.771	452
4.823	452
4.873	450
4.923	452
4.973	455
5.023	454
5.074	460
5.124	463
5.174	465
5.224	472
5.274	474
5.324	479
5.375	484
5.425	484
5.475	490
5.525	491
5.575	490
5.625	493
5.676	490
5.727	491
5.777	490
5.827	484
5.877	484
5.928	479
5.978	474
6.028	472
6.078	466
6.128	463
6.178	461
6.229	457
6.279	456
6.329	455
6.379	452
6.429	454
6.479	453
6.530	455
6.580	459
6.631	460
6.681	465
6.731	468
6.782	470
6.832	476
6.882	477
6.932	482
6.982	486
7.032	485
7.083	490
7.133	491
7.183	489
7.233	491
7.283	487
7.333	488
7.384	486
7.434	481
7.485	480
7.535	476
7.585	471
7.636	469
7.686	463
7.736	461
7.786	460
7.836	456
7.886	456
7.937	455
7.987	453
8.037	456
8.087	455
8.137	458
8.187	461
8.238	462
8.288	468
8.338	471
8.389	473
8.439	479
8.490	479
8.540	484
8.590	487
8.640	487
8.690	491
8.740	491
8.791	490
8.841	490
8.891	486
8.941	486
8.991	484
9.042	479
9.092	477
9.142	474
9.192	468
9.242	466
9.293	460
9.344	459
9.394	457
9.444	454
9.494	454
9.544	455
9.594	453
9.645	456
9.695	455
9.745	460
9.795	463
9.845	466
9.896	471
9.946	474
9.996	477
10.046	482
10.096	483
10.146	489
10.198	491
10.248	491
10.298	494
10.348	492
10.398	491
10.448	490
10.499	486
10.549	485
10.599	481
10.649	475
10.699	473
10.750	468
10.800	463
10.850	461
10.900	455
10.950	455
11.000	453
11.051	451
11.102	452
11.152	453
11.202	453
11.252	457
11.303	458
11.353	464
11.403	468
11.453	470
11.503	477
11.553	479
11.604	484
11.654	489
11.704	488
11.754	494
11.804	494
11.854	493
11.905	494
11.955	490
12.006	488
12.056	487
12.106	480
12.157	479
12.207	474
12.257	468
12.307	465
12.357	459
12.407	457
12.458	455
12.508	452
12.558	451
12.608	451
12.658	450
12.708	453
12.759	454
12.809	457
12.859	463
12.910	465
12.960	471
13.011	475
13.061	478
13.111	484
13.161	484
13.211	490
13.261	493
13.312	492
13.362	495
13.412	494
13.462	492
13.512	491
13.562	485
13.613	484
13.663	480
13.713	474
13.763	472
13.814	467
13.865	461
13.915	460
13.965	454
14.015	453
14.065	452
14.115	450
14.166	452
14.216	453
14.266	454
14.316	458
14.366	459
14.416	464
14.467	469
14.517	471
14.567	478
14.617	481
14.667	483
14.719	489
14.769	488
14.819	492
14.869	494
14.919	491
14.969	493
15.020	491
15.070	487
15.120	486
15.170	479
15.220	478
15.271	474
15.321	467
15.371	466
15.421	463
15.471	458
15.521	457
15.572	453
15.623	453
15.673	453
15.723	452
15.773	455
15.823	457
15.874	458
15.924	463
15.974	464
16.024	470
16.074	474
16.125	475
16.175	482
16.225	483
16.275	485
16.325	489
16.375	488
16.426	491
16.476	491
16.527	488
16.577	489
16.627	486
16.677	482
16.728	481
16.778	475
16.828	475
16.878	471
16.928	466
16.979	465
17.029	462
17.079	458
17.129	458
17.179	455
17.229	456
17.280	456
17.330	456
17.381	459
17.431	461
17.481	461
17.531	466
17.582	467
17.632	472
17.682	475
17.732	476
17.782	482
17.833	482
17.883	484
17.933	488
17.983	486
18.033	490
18.083	489
18.134	487
18.184	488
18.234	484
18.285	481
18.335	480
18.386	475
18.436	474
18.486	470
18.536	465
18.586	464
18.636	459
18.687	458
18.737	457
18.787	454
18.837	455
18.887	455
18.937	455
18.988	458
19.038	458
19.088	462
19.138	466
19.189	467
19.240	474
19.290	477
19.340	479
19.390	484
19.440	483
19.490	488
19.541	491
19.591	489
19.641	493
19.691	491
19.741	488
19.791	488
19.842	482
19.892	481
19.942	478
19.992	472
20.042	471
20.094	466
20.144	461
20.194	460
20.244	454
20.294	453
20.344	453
20.395	452
20.445	453
20.495	454
20.545	455
20.595	459
20.645	460
20.696	465
20.746	470
20.796	472
20.846	479
20.896	482
20.947	484
20.998	489
21.048	487
21.098	492
21.148	494
21.198	491
21.249	493
21.299	490
21.349	486
21.399	486
21.449	480
21.499	477
21.550	473
21.600	466
21.650	465
21.700	461
21.750	456
21.801	455
21.851	451
21.902	451
21.952	452
22.002	451
22.052	454
22.103	457
22.153	458
22.203	463
22.253	464
22.303	472
22.354	476
22.404	478
22.454	484
22.504	487
22.554	489
22.604	493
22.655	491
22.705	495
22.755	494
22.806	489
22.856	490
22.906	487
22.957	482
23.007	480
23.057	473
23.107	471
23.157	467
23.208	461
23.258	460
23.308	457
23.358	453
23.408	453
23.458	450
23.509	452
23.559	453
23.609	454
23.659	459
23.710	462
23.760	464
23.811	469
23.861	471
23.911	477
23.961	481
24.011	482
24.062	488
24.112	488
24.162	490
24.212	493
24.262	490
24.312	493
24.363	491
24.413	486
24.463	486
24.513	479
24.563	477
24.615	474
24.665	468
24.715	467
24.765	463
24.815	458
24.865	457
24.916	455
24.966	452
25.016	453
25.066	452
25.116	456
25.166	457
25.217	459
25.267	463
25.317	464
25.367	468
25.417	474
25.467	475
25.519	481
25.569	484
25.619	484
25.669	489
25.719	487
25.770	490
25.820	491
25.870	487
25.920	490
25.970	487
26.020	483
26.071	482
26.121	476
26.171	474
26.221	472
26.271	466
26.322	465
26.372	462
26.423	457
26.473	458
26.523	455
26.573	455
26.624	456
26.674	455
26.724	458
26.774	460
26.824	461
26.874	466
26.925	466
26.975	471
27.025	475
27.075	477
27.125	482
27.176	484
27.226	484
27.277	489
27.327	487
27.377	490
27.427	490
27.478	487
27.528	488
27.578	485
27.628	481
27.678	481
27.728	475
27.779	472
27.829	470
27.879	464
27.929	464
27.979	460
28.030	457
28.080	457
28.130	453
28.181	454
28.231	455
28.281	454
28.332	458
28.382	461
28.432	461
28.482	467
28.532	468
28.583	474
28.633	478
28.683	479
28.733	485
28.783	487
28.833	488
28.884	492
28.934	490
28.984	491
29.034	492
29.085	487
29.135	488
29.186	485
29.236	480
29.286	478
29.336	471
29.386	469
29.437	465
29.487	460
29.537	458
29.587	455
29.637	452
29.687	452
29.738	450
29.788	452
29.838	454
29.888	455
29.938	459
29.989	463
30.040	466
30.090	472
30.140	474
30.190	481
30.240	485
30.291	486
30.341	493
30.391	491
30.441	493
30.491	496
30.541	492
30.592	494
30.642	491
30.692	486
30.742	484
30.792	478
30.842	473
30.894	470
30.944	464
30.994	462
31.044	458
31.094	452
31.145	452
31.195	451
31.245	448
31.295	450
31.345	450
31.395	454
31.446	458
31.496	460
31.546	466
31.596	470
31.646	475
31.696	481
31.747	482
31.798	490
31.848	492
31.898	492
31.948	496
31.999	494
32.049	495
32.099	494
32.149	490
32.199	489
32.249	484
32.300	478
32.350	475
32.400	468
32.450	464
32.500	461
32.551	454
32.601	454
32.651	451
32.702	448
32.752	450
32.802	449
32.853	450
32.903	454
32.953	456
33.003	462
33.053	466
33.103	470
33.154	476
33.204	478
33.254	484
33.304	489
33.354	488
33.405	495
33.455	495
33.505	493
33.555	496
33.606	491
33.656	491
33.707	488
33.757	481
33.807	480
33.857	475
33.907	469
33.957	466
34.008	460
34.058	457
34.108	456
34.158	451
34.208	452
34.259	451
34.309	451
34.359	454
34.409	454
34.459	458
34.510	461
34.561	464
34.611	470
34.661	474
34.711	476
34.761	482
34.811	483
34.862	488
34.912	491
34.962	489
35.012	493
35.062	492
35.113	490
35.163	490
35.213	485
35.263	484
35.313	481
35.363	476
35.415	474
35.465	470
35.515	464
35.565	463
35.615	458
35.666	456
35.716	456
35.766	453
35.816	455
35.866	455
35.916	454
35.967	459
36.017	459
36.067	464
36.117	467
36.167	468
36.217	474
36.268	477
36.319	479
36.369	484
36.419	483
36.469	488
36.520	490
36.570	488
36.620	490
36.670	489
36.720	486
36.770	487
36.821	482
36.871	481
36.921	478
36.971	472
37.021	472
37.071	467
37.122	464
37.172	462
37.223	458
37.273	458
37.323	457
37.374	454
37.424	456
37.474	457
37.524	457
37.574	460
37.624	460
37.675	465
37.725	468
37.775	470
37.825	475
37.875	477
37.925	480
37.976	485
38.026	485
38.077	489
38.127	490
38.177	489
38.228	491
38.278	487
38.328	487
38.378	486
38.428	480
38.478	481
38.529	477
38.579	471
38.629	470
38.679	466
38.729	461
38.779	460
38.830	455
38.880	456
38.930	454
38.981	453
39.031	455
39.082	456
39.132	457
39.182	460
39.232	461
39.282	467
39.332	471
39.383	473
39.433	479
39.483	479
39.533	485
39.583	489
39.634	488
39.684	493
39.734	493
39.784	491
39.834	492
39.885	487
39.936	486
39.986	485
40.036	479
40.086	477
40.136	473
40.186	466
40.237	465
40.287	459
40.337	457
40.387	455
40.437	451
40.488	452
40.538	452
40.588	452
40.638	454
40.688	454
40.738	459
40.790	464
40.840	465
40.890	472
40.940	477
40.990	479
41.040	485
41.091	485
41.141	490
41.191	494
41.241	492
41.291	496
41.342	494
41.392	491
41.442	491
41.492	485
41.542	483
41.592	479
41.643	472
41.694	470
41.744	465
41.794	460
41.844	457
41.895	453
41.945	452
41.995	451
42.045	449
42.095	451
42.145	453
42.196	454
42.246	458
42.296	460
42.346	465
42.396	471
42.446	473
42.497	480
42.547	484
42.598	485
42.648	491
42.698	490
42.749	494
42.799	495
42.849	492
42.899	493
42.949	490
42.999	486
43.050	485
43.100	478
43.150	476
43.200	472
43.250	465
43.300	464
43.351	460
43.401	456
43.451	455
43.502	451
43.552	452
43.603	452
43.653	452
43.703	456
43.753	458
43.803	459
43.853	465
43.904	466
43.954	473
44.004	477
44.054	478
44.104	485
44.154	485
44.205	488
44.255	492
44.305	489
44.355	492
44.406	492
44.457	488
44.507	488
44.557	484
44.607	481
44.657	479
44.707	472
44.758	471
44.808	468
44.858	462
44.908	461
44.958	459
45.008	456
45.059	455
45.109	453
45.159	455
45.209	456
45.259	456
45.311	460
45.361	463
45.411	464
45.461	469
45.511	470
45.561	476
45.612	480
45.662	480
45.712	486
45.762	486
45.812	488
45.863	490
45.913	488
45.963	491
46.013	489
46.063	484
46.113	486
46.164	481
46.215	478
46.265	476
46.315	470
46.365	469
46.415	465
46.466	461
46.516	460
46.566	456
46.616	454
46.666	455
46.717	453
46.767	455
46.817	457
46.867	457
46.917	462
46.967	462
47.018	467
47.068	472
47.119	473
47.169	479
47.219	482
47.269	484
47.320	488
47.370	487
47.420	490
47.470	492
47.520	489
47.571	491
47.621	489
47.671	485
47.721	484
47.771	478
47.821	476
47.872	473
47.922	467
47.973	465
48.023	462
48.073	457
48.123	456
48.174	453
48.224	452
48.274	453
48.324	452
48.374	456
48.425	458
48.475	459
48.525	464
48.575	465
48.625	471
48.675	476
48.726	477
48.776	484
48.826	487
48.877	487
48.927	492
48.978	490
49.028	492
49.078	493
49.128	489
49.178	490
49.228	487
49.279	482
49.329	480
49.379	474
49.429	471
49.479	468
49.529	461
49.580	460
49.630	457
49.680	453
49.730	453
49.781	450
49.832	452
49.882	453
49.932	453
49.982	458
50.032	461
50.082	463
50.133	469
50.183	471
50.233	476
50.283	481
50.333	483
50.383	488
50.434	490
50.484	491
50.534	494
50.584	490
50.634	493
50.686	492
50.736	486
50.786	486
50.836	482
50.886	477
50.936	474
50.987	467
51.037	466
51.087	462
51.137	457
51.187	456
51.237	455
51.288	451
51.338	452
51.388	451
51.438	454
51.488	456
51.539	458
51.590	463
51.640	465
51.690	468
51.740	475
51.790	476
51.841	483
51.891	486
51.941	487
51.991	491
52.041	490
52.091	492
52.142	493
52.192	490
52.242	491
52.292	488
52.342	482
52.393	481
52.443	476
52.494	471
52.544	469
52.594	463
52.644	462
52.695	458
52.745	454
52.795	454
52.845	453
52.895	452
52.946	454
52.996	453
53.046	458
53.096	460
53.146	462
53.196	468
53.247	469
53.297	474
53.347	479
53.398	480
53.448	486
53.498	489
53.549	488
53.599	493
53.649	489
53.699	491
53.749	491
53.800	486
53.850	487
53.900	483
53.950	478
54.000	477
54.050	470
54.101	468
54.151	465
54.201	460
54.251	459
54.302	456
54.352	453
54.403	454
54.453	452
54.503	453
54.553	456
54.603	456
54.654	461
54.704	464
54.754	466
54.804	472
54.854	474
54.904	478
54.955	483
55.005	484
55.055	489
55.105	490
55.155	489
55.207	492
55.257	489
55.307	490
55.357	489
55.407	483
55.457	484
55.508	480
55.558	474
55.608	473
55.658	466
55.708	464
55.758	462
55.809	456
55.859	457
55.909	455
55.959	453
56.009	454
56.059	453
56.111	455
56.161	458
56.211	459
56.261	464
56.311	467
56.362	469
56.412	476
56.462	476
56.512	482
56.562	486
56.612	486
56.663	491
56.713	491
56.763	490
56.813	493
56.863	488
56.914	489
56.964	487
57.015	481
57.065	481
57.115	476
57.165	470
57.216	469
57.266	463
57.316	460
57.366	458
57.416	454
57.466	455
57.517	453
57.567	452
57.617	454
57.667	454
57.717	457
57.768	461
57.818	462
57.869	468
57.919	471
57.969	474
58.019	480
58.070	481
58.120	487
58.170	489
58.220	489
58.270	493
58.320	492
58.371	491
58.421	492
58.471	486
58.521	487
58.571	483
58.622	478
58.672	476
58.722	471
58.773	466
58.823	464
58.873	459
58.924	457
58.974	455
59.024	452
59.074	452
59.124	453
59.175	452
59.225	455
59.275	456
59.325	461
59.375	465
59.425	466
59.476	473
59.526	476
59.576	480
59.626	485
59.677	485
59.727	491
59.778	492
59.828	491
59.878	494
59.928	491
59.978	490
60.029	489
60.079	483
60.129	482
60.179	478
60.229	472
60.279	470
60.330	465
60.380	461
60.430	459
60.480	455
60.530	454
60.581	453
60.632	451
60.682	453
60.732	453
60.782	455
60.832	459
60.883	461
60.933	466
60.983	470
61.033	471
61.083	478
61.133	479
61.184	485
61.234	489
61.284	488
61.334	493
61.384	493
61.434	491
61.486	492
61.536	487
61.586	487
61.636	485
61.686	478
61.737	477
61.787	473
61.837	467
61.887	465
61.937	459
61.987	457
62.038	456
62.088	453
62.138	453
62.188	453
62.238	452
62.288	455
62.339	455
62.390	459
62.440	464
62.490	465
62.540	471
62.591	475
62.641	477
62.691	483
62.741	483
62.791	488
62.841	491
62.892	490
62.942	493
62.992	492
63.042	490
63.092	490
63.143	484
63.193	483
63.243	480
63.294	474
63.344	472
63.394	467
63.445	462
63.495	461
63.545	456
63.595	454
63.645	454
63.695	451
63.746	453
63.796	454
63.846	454
63.896	458
63.946	459
63.997	464
64.047	468
64.097	471
64.147	476
64.198	480
64.248	482
64.299	487
64.349	487
64.399	492
64.449	493
64.499	490
64.549	493
64.600	490
64.650	487
64.700	486
64.750	480
64.800	479
64.851	475
64.901	469
64.951	467
65.001	463
65.051	458
65.102	457
65.153	453
65.203	453
65.253	453
65.303	451
65.353	454
65.403	457
65.454	457
65.504	462
65.554	463
65.604	470
65.654	474
65.705	476
65.755	482
65.805	484
65.855	487
65.905	491
65.955	489
66.007	493
66.057	493
66.107	490
66.157	491
66.207	486
66.258	484
66.308	482
66.358	475
66.408	474
66.458	470
66.508	464
66.559	462
66.609	459
66.659	455
66.709	454
66.759	451
66.809	453
66.860	453
66.911	454
66.961	456
67.011	459
67.061	461
67.112	466
67.162	469
67.212	475
67.262	479
67.312	480
67.362	486
67.413	486
67.463	490
67.513	493
67.563	491
67.613	494
67.663	492
67.714	487
67.764	488
67.815	482
67.865	479
67.915	477
67.966	470
68.016	468
68.066	464
68.116	459
68.166	458
68.216	454
68.267	453
68.317	453
68.367	451
68.417	454
68.467	455
68.517	455
68.568	460
68.618	462
68.669	467
68.719	472
68.769	474
68.820	481
68.870	484
68.920	485
68.970	490
69.020	489
69.070	493
69.121	494
69.171	491
69.221	492
69.271	490
69.321	484
69.371	484
69.422	477
69.472	475
69.522	471
69.573	465
69.623	464
69.674	459
69.724	455
69.774	455
69.824	451
69.874	451
69.924	452
69.975	452
70.025	456
70.075	458
70.125	459
70.175	466
70.226	467
70.276	473
70.326	478
70.376	479
70.426	486
70.477	488
70.528	489
70.578	493
70.628	490
70.678	494
70.728	493
70.778	488
70.829	489
70.879	485
70.929	480
70.979	478
71.029	471
71.080	467
71.130	465
71.180	460
71.230	458
71.280	455
71.330	452
