#Creator: pendulumdriveEventBuffer
#Creation time: Tue Apr  8 15:09:33 2014
#Time	Pos
#[s]	[au]
0.050	492
0.101	493
0.151	499
0.201	497
0.251	499
0.301	501
0.352	495
0.402	496
0.452	492
0.502	485
0.552	482
0.602	474
0.653	470
0.703	465
0.754	458
0.804	456
0.854	452
0.905	448
0.955	448
1.005	445
1.055	446
1.105	449
1.155	450
1.206	457
1.256	460
1.306	464
1.356	471
1.406	474
1.456	481
1.507	487
1.557	488
1.607	494
1.658	499
1.708	498
1.759	500
1.809	496
1.859	494
1.909	494
1.959	486
2.009	484
2.060	479
2.110	473
2.160	469
2.210	462
2.260	458
2.310	455
2.361	450
2.411	450
2.461	449
2.511	448
2.562	450
2.613	450
2.663	454
2.713	459
2.763	461
2.813	469
2.863	473
2.914	476
2.964	483
3.014	485
3.064	490
3.114	493
3.164	494
3.215	498
3.265	496
3.315	494
3.365	493
3.415	487
3.467	485
3.517	483
3.567	476
3.617	475
3.667	469
3.717	462
3.768	460
3.818	456
3.868	452
3.918	451
3.968	448
4.018	449
4.069	452
4.119	452
4.169	457
4.219	457
4.269	464
4.320	468
4.371	471
4.421	478
4.471	482
4.521	485
4.571	491
4.622	490
4.672	495
4.722	496
4.772	493
4.822	495
4.873	492
4.923	489
4.973	488
5.023	480
5.073	478
5.123	473
5.174	467
5.224	465
5.275	460
5.325	456
5.375	453
5.425	451
5.476	449
5.526	451
5.576	450
5.626	453
5.676	458
5.727	457
5.777	465
5.827	466
5.877	473
5.927	478
5.977	481
6.028	488
6.078	489
6.128	493
6.179	496
6.229	494
6.279	497
6.330	496
6.380	492
6.430	491
6.480	485
6.530	481
6.581	477
6.631	470
6.681	468
6.731	462
6.781	457
6.831	455
6.882	450
6.932	448
6.982	449
7.032	447
7.083	449
7.133	453
7.184	454
7.234	458
7.284	461
7.334	468
7.384	475
7.435	476
7.485	485
7.535	490
7.585	491
7.635	495
7.685	496
7.736	498
7.786	499
7.836	494
7.886	496
7.936	491
7.988	484
8.038	482
8.088	473
8.138	469
8.188	465
8.238	458
8.289	456
8.339	452
8.389	448
8.439	447
8.489	445
8.539	446
8.590	449
8.640	450
8.690	456
8.740	460
8.790	463
8.841	471
8.892	476
8.942	481
8.992	488
9.042	490
9.092	497
9.143	497
9.193	499
9.243	501
9.293	495
9.343	497
9.393	494
9.444	487
9.494	486
9.544	479
9.594	472
9.644	469
9.695	459
9.745	455
9.796	452
9.846	447
9.896	446
9.946	445
9.997	443
10.047	446
10.097	448
10.147	452
10.197	458
10.247	461
10.298	470
10.348	475
10.398	480
10.448	488
10.498	490
10.549	496
10.599	500
10.650	499
10.700	502
10.750	502
10.800	498
10.851	496
10.901	489
10.951	486
11.001	482
11.051	475
11.101	469
11.152	463
11.202	455
11.252	451
11.302	447
11.352	442
11.403	444
11.453	442
11.503	445
11.554	447
11.604	450
11.654	456
11.705	460
11.755	468
11.805	475
11.855	479
11.905	488
11.956	492
12.006	496
12.056	502
12.106	500
12.156	504
12.206	503
12.257	500
12.307	498
12.357	491
12.407	486
12.458	482
12.508	472
12.559	469
12.609	462
12.659	453
12.709	450
12.759	447
12.810	443
12.860	443
12.910	440
12.960	443
13.010	446
13.060	449
13.111	455
13.161	463
13.211	466
13.261	474
13.311	479
13.362	488
13.413	492
13.463	495
13.513	501
13.563	501
13.613	502
13.664	504
13.714	498
13.764	498
13.814	493
13.864	486
13.914	482
13.965	473
14.015	468
14.065	463
14.115	456
14.165	453
14.215	448
14.267	444
14.317	444
14.367	443
14.417	444
14.467	449
14.518	451
14.568	456
14.618	461
14.668	465
14.718	474
14.768	477
14.819	483
14.869	491
14.919	492
14.969	498
15.019	500
15.069	499
15.120	501
15.171	497
15.221	495
15.271	493
15.321	485
15.372	483
15.422	477
15.472	469
15.522	466
15.572	458
15.622	454
15.673	452
15.723	448
15.773	447
15.823	446
15.873	446
15.924	449
15.974	451
16.024	455
16.075	461
16.125	465
16.175	472
16.226	476
16.276	479
16.326	486
16.376	487
16.426	493
16.476	496
16.527	496
16.577	498
16.627	497
16.677	492
16.727	493
16.778	486
16.828	483
16.878	481
16.928	473
16.979	470
17.029	466
17.080	459
17.130	457
17.180	454
17.230	452
17.280	452
17.330	450
17.381	452
17.431	454
17.481	455
17.531	460
17.581	462
17.632	466
17.682	471
17.732	473
17.782	480
17.832	483
17.883	485
17.934	489
17.984	489
18.034	492
18.084	493
18.134	491
18.185	491
18.235	489
18.285	484
18.335	486
18.385	478
18.435	476
18.486	473
18.536	467
18.586	466
18.636	463
18.686	457
18.736	458
18.788	456
18.838	455
18.888	454
18.938	454
18.988	456
19.039	459
19.089	460
19.139	465
19.189	465
19.239	472
19.289	475
19.340	477
19.390	483
19.440	484
19.490	486
19.540	490
19.590	488
19.641	492
19.692	491
19.742	487
19.792	489
19.842	485
19.893	482
19.943	480
19.993	474
20.043	473
20.093	469
20.143	463
20.194	462
20.244	459
20.294	456
20.344	456
20.394	453
20.444	453
20.495	453
20.545	456
20.596	458
20.646	460
20.696	462
20.747	468
20.797	470
20.847	476
20.897	480
20.947	481
20.997	488
21.048	487
21.098	491
21.148	494
21.198	492
21.248	494
21.298	493
21.349	488
21.399	488
21.450	482
21.500	479
21.550	475
21.601	468
21.651	467
21.701	463
21.751	456
21.801	455
21.851	450
21.902	451
21.952	452
22.002	450
22.052	453
22.102	454
22.153	457
22.203	462
22.253	464
22.303	470
22.354	477
22.404	479
22.455	487
22.505	489
22.555	492
22.605	497
22.655	495
22.705	497
22.756	498
22.806	492
22.856	494
22.906	490
22.956	484
23.007	480
23.057	473
23.107	468
23.157	464
23.207	457
23.258	455
23.309	451
23.359	448
23.409	447
23.459	445
23.509	446
23.559	449
23.610	451
23.660	457
23.710	463
23.760	466
23.810	474
23.861	475
23.911	482
23.961	489
24.011	491
24.061	499
24.111	501
24.163	499
24.213	501
24.263	495
24.313	498
24.363	494
24.413	486
24.464	484
24.514	476
24.564	469
24.614	465
24.664	457
24.715	454
24.765	450
24.815	445
24.865	444
24.915	444
24.965	443
25.016	447
25.067	448
25.117	454
25.167	460
25.217	464
25.268	472
25.318	478
25.368	483
25.418	490
25.468	492
25.518	498
25.569	501
25.619	502
25.669	503
25.719	500
25.769	497
25.819	495
25.870	489
25.920	485
25.971	479
26.021	472
26.071	465
26.122	461
26.172	453
26.222	449
26.272	445
26.322	445
26.372	443
26.423	444
26.473	446
26.523	450
26.573	452
26.623	459
26.673	462
26.724	471
26.774	477
26.824	480
26.875	489
26.925	490
26.976	496
27.026	500
27.076	498
27.126	503
27.176	501
27.226	496
27.277	496
27.327	487
27.377	484
27.427	479
27.477	472
27.527	467
27.578	463
27.628	456
27.678	452
27.728	449
27.779	447
27.830	448
27.880	447
27.930	450
27.980	450
28.030	452
28.080	458
28.131	461
28.181	467
28.231	474
28.281	477
28.331	484
28.381	488
28.432	490
28.482	496
28.532	494
28.582	497
28.632	497
28.684	493
28.734	494
28.784	490
28.834	484
28.884	482
28.934	474
28.985	471
29.035	468
29.085	461
29.135	460
29.185	456
29.236	451
29.286	453
29.336	450
29.386	451
29.436	453
29.486	455
29.537	458
29.588	460
29.638	464
29.688	470
29.738	471
29.788	477
29.839	480
29.889	482
29.939	487
29.989	488
30.039	490
30.090	492
30.140	489
30.190	491
30.240	490
30.290	485
30.340	486
30.391	481
30.441	476
30.492	475
30.542	468
30.592	466
30.642	464
30.693	460
30.743	459
30.793	457
30.843	454
30.893	456
30.944	454
30.994	456
31.044	459
31.094	459
31.144	464
31.194	467
31.245	469
31.295	473
31.346	473
31.396	478
31.446	484
31.497	483
31.547	489
31.597	490
31.647	488
31.697	491
31.747	489
31.798	490
31.848	487
31.898	483
31.948	484
31.998	479
32.048	474
32.099	472
32.149	466
32.199	464
32.250	462
32.300	457
32.351	457
32.401	455
32.451	453
32.501	455
32.551	453
32.601	456
32.652	459
32.702	461
32.752	466
32.802	469
32.852	472
32.902	478
32.953	479
33.003	486
33.053	488
33.103	489
33.154	493
33.205	493
33.255	493
33.305	495
33.355	489
33.405	489
33.455	486
33.506	481
33.556	478
33.606	472
33.656	468
33.706	465
33.756	458
33.807	457
33.857	453
33.907	450
33.957	450
34.007	451
34.059	449
34.109	452
34.159	454
34.209	459
34.259	463
34.309	466
34.360	474
34.410	478
34.460	483
34.510	489
34.560	490
34.610	496
34.661	498
34.711	497
34.761	500
34.811	495
34.861	493
34.912	492
34.963	484
35.013	484
35.063	477
35.113	468
35.163	466
35.214	460
35.264	456
35.314	452
35.364	446
35.414	444
35.465	445
35.515	442
35.565	449
35.615	451
35.665	455
35.715	460
35.766	463
35.816	471
35.867	477
35.917	481
35.967	489
36.017	490
36.068	496
36.118	501
36.168	499
36.218	503
36.268	501
36.319	497
36.369	496
36.419	487
36.469	485
36.519	479
36.569	471
36.620	467
36.670	461
36.720	455
36.771	451
36.821	445
36.871	443
36.922	444
36.972	443
37.022	445
37.072	449
37.122	451
37.173	458
37.223	461
37.273	469
37.323	475
37.373	479
37.423	490
37.474	494
37.524	496
37.574	501
37.624	499
37.675	503
37.725	502
37.776	497
37.826	497
37.876	492
37.926	485
37.976	481
38.027	473
38.077	467
38.127	462
38.177	455
38.227	451
38.277	447
38.328	443
38.378	444
38.428	442
38.478	445
38.528	448
38.580	449
38.630	456
38.680	462
38.730	467
38.780	475
38.830	478
38.881	488
38.931	493
38.981	495
39.031	502
39.081	501
39.131	501
39.182	503
39.232	499
39.282	499
39.332	493
39.382	485
39.433	482
39.484	475
39.534	468
39.584	463
39.634	456
39.684	452
39.735	448
39.785	445
39.835	444
39.885	447
39.935	445
39.985	448
40.036	450
40.086	456
40.136	462
40.186	465
40.236	474
40.287	478
40.337	484
40.388	491
40.438	492
40.488	499
40.538	502
40.589	501
40.639	502
40.689	497
40.739	494
40.789	495
40.839	487
40.890	482
40.940	477
40.990	470
41.040	466
41.090	462
41.141	454
41.191	452
41.242	446
41.292	447
41.342	446
41.392	446
41.443	449
41.493	453
41.543	454
41.593	461
41.643	464
41.693	472
41.744	477
41.794	480
41.844	487
41.894	489
41.944	494
41.995	498
42.045	496
42.095	499
42.146	498
42.196	493
42.246	493
42.297	485
42.347	483
42.397	480
42.447	472
42.497	467
42.548	463
42.598	458
42.648	455
42.698	450
42.748	449
42.798	448
42.849	449
42.899	449
42.949	451
42.999	455
43.050	459
43.100	461
43.151	465
43.201	473
43.251	476
43.301	483
43.351	487
43.402	489
43.452	494
43.502	494
43.552	496
43.602	497
43.652	494
43.703	494
43.753	491
43.803	485
43.853	483
43.903	476
43.954	472
44.005	469
44.055	462
44.105	460
44.155	456
44.205	452
44.256	451
44.306	449
44.356	448
44.406	451
44.456	452
44.506	457
44.557	460
44.607	462
44.657	469
44.707	471
44.757	477
44.807	483
44.859	485
44.909	489
44.959	491
45.009	494
45.059	496
45.110	493
45.160	495
45.210	493
45.260	488
45.310	487
45.360	483
45.411	477
45.461	474
45.511	467
45.561	464
45.611	461
45.661	455
45.712	454
45.763	453
45.813	450
45.863	451
45.913	450
45.964	453
46.014	456
46.064	457
46.114	464
46.164	467
46.214	471
46.265	479
46.315	479
46.365	485
46.415	488
46.465	489
46.516	495
46.566	497
46.616	494
46.667	495
46.717	491
46.767	491
46.818	487
46.868	482
46.918	479
46.968	474
47.018	468
47.068	465
47.119	459
47.169	457
47.219	454
47.269	450
47.319	451
47.370	451
47.420	449
47.470	452
47.520	453
47.571	458
47.621	463
47.672	465
47.722	472
47.772	476
47.822	480
47.872	487
47.922	487
47.973	494
48.023	495
48.073	493
48.123	499
48.173	494
48.224	493
48.274	493
48.324	485
48.374	483
48.424	479
48.475	474
48.526	469
48.576	462
48.626	459
48.676	456
48.726	451
48.777	451
48.827	448
48.877	448
48.927	449
48.977	449
49.027	453
49.078	458
49.128	461
49.178	468
49.228	473
49.278	476
49.328	483
49.380	485
49.430	490
49.480	495
49.530	495
49.580	498
49.631	498
49.681	496
49.731	496
49.781	490
49.831	488
49.881	483
49.932	476
49.982	472
50.032	468
50.082	460
50.132	459
50.182	453
50.233	451
50.284	448
50.334	446
50.384	448
50.434	448
50.485	451
50.535	454
50.585	457
50.635	461
50.685	469
50.735	473
50.786	480
50.836	485
50.886	487
50.936	494
50.986	493
51.036	498
51.087	500
51.137	497
51.188	498
51.238	495
51.288	489
51.339	488
51.389	480
51.439	476
51.489	471
51.539	463
51.589	461
51.640	455
51.690	451
51.740	450
51.790	446
51.840	447
51.890	448
51.941	447
51.991	452
52.042	456
52.092	457
52.142	466
52.193	468
52.243	478
52.293	482
52.343	485
52.393	491
52.443	495
52.494	496
52.544	500
52.594	497
52.644	499
52.694	497
52.745	491
52.795	490
52.845	484
52.895	477
52.946	474
52.996	466
53.047	462
53.097	457
53.147	452
53.197	449
53.247	447
53.297	445
53.348	447
53.398	446
53.448	449
53.498	453
53.548	455
53.599	462
53.649	468
53.699	472
53.749	480
53.799	485
53.850	491
53.901	494
53.951	494
54.001	501
54.051	499
54.101	498
54.151	500
54.202	493
54.252	493
54.302	488
54.352	480
54.402	477
54.453	471
54.503	463
54.553	460
54.603	453
54.653	450
54.703	447
54.755	445
54.805	446
54.855	449
54.905	448
54.955	453
55.005	455
55.056	461
55.106	466
55.156	470
55.206	479
55.256	482
55.307	486
55.357	496
55.407	493
55.457	499
55.507	501
55.557	499
55.608	499
55.659	496
55.709	491
55.759	489
55.809	480
55.860	480
55.910	473
55.960	465
56.010	462
56.060	455
56.110	450
56.161	448
56.211	446
56.261	445
56.311	446
56.361	446
56.411	450
56.462	452
56.512	458
56.563	464
56.613	468
56.663	477
56.714	482
56.764	485
56.814	493
56.864	493
56.914	498
56.964	502
57.015	498
57.065	501
57.115	498
57.165	492
57.215	490
57.265	483
57.316	480
57.366	475
57.416	466
57.467	462
57.517	458
57.568	450
57.618	449
57.668	445
57.718	445
57.768	445
57.818	445
57.869	449
57.919	453
57.969	456
58.019	462
58.069	466
58.119	473
58.170	481
58.220	483
58.270	492
58.320	495
58.371	496
58.422	501
58.472	499
58.522	501
58.572	499
58.622	493
58.672	493
58.723	488
58.773	481
58.823	477
58.873	469
58.923	464
58.973	460
59.024	452
59.074	450
59.124	447
59.174	445
59.224	447
59.276	444
59.326	446
59.376	453
59.426	454
59.476	463
59.526	467
59.577	470
59.627	478
59.677	480
59.727	490
59.777	493
59.828	495
59.878	500
59.928	501
59.978	499
60.028	500
60.078	495
60.129	494
60.180	489
60.230	481
60.280	479
60.330	472
60.380	464
60.431	461
60.481	454
60.531	450
60.581	448
60.631	445
60.682	445
60.732	447
60.782	446
60.832	449
60.882	451
60.932	458
60.983	465
61.033	467
61.084	476
61.134	483
61.184	485
61.234	491
61.285	494
61.335	499
61.385	500
61.435	500
61.485	501
61.536	495
61.586	494
61.636	491
61.686	483
61.736	480
61.786	474
61.837	466
61.887	462
61.938	458
61.988	451
62.038	449
62.089	444
62.139	445
62.189	445
62.239	445
62.289	449
62.339	453
62.390	456
62.440	463
62.490	466
62.540	475
62.590	481
62.640	485
62.691	492
62.741	493
62.791	497
62.842	501
62.892	500
62.943	501
62.993	499
63.043	494
63.093	494
63.143	486
63.193	482
63.244	475
63.294	467
63.344	464
63.394	457
63.444	452
63.494	449
63.545	445
63.595	443
63.645	445
63.695	445
63.746	448
63.797	451
63.847	454
63.897	462
63.947	465
63.997	472
64.047	480
64.098	483
64.148	491
64.198	495
64.248	496
64.298	502
64.348	499
64.399	501
64.449	501
64.499	495
64.549	494
64.599	488
64.651	481
64.701	478
64.751	467
64.801	465
64.851	458
64.901	452
64.952	449
65.002	447
65.052	444
65.102	445
65.152	446
65.202	446
65.253	450
65.303	454
65.353	460
65.403	465
65.453	470
65.504	479
65.555	482
65.605	489
65.655	495
65.705	495
65.755	501
65.806	502
65.856	500
65.906	502
65.956	496
66.006	493
66.057	490
66.107	482
66.157	479
66.207	471
66.257	464
66.307	459
66.358	453
66.408	450
66.459	448
66.509	445
66.559	444
66.609	447
66.660	446
66.710	449
66.760	452
66.810	458
66.860	462
66.911	467
66.961	477
67.011	482
67.061	488
67.111	493
67.161	493
67.212	499
67.262	501
67.312	498
67.363	501
67.413	497
67.463	493
67.514	491
67.564	483
67.614	480
67.664	475
67.714	467
67.765	463
67.815	459
67.865	452
67.915	450
67.965	447
68.015	447
68.066	447
68.116	447
68.166	450
68.216	454
68.267	456
68.317	463
68.368	466
68.418	472
68.468	479
68.518	481
68.568	490
68.619	490
68.669	495
68.719	498
68.769	496
68.819	500
68.869	498
68.920	493
68.970	492
69.020	487
69.070	481
69.120	477
69.172	470
69.222	466
69.272	462
69.322	456
69.372	454
69.422	451
69.473	448
69.523	448
69.573	447
69.623	450
69.673	453
69.723	454
69.774	460
69.824	463
69.874	469
69.924	475
69.974	478
70.025	485
70.076	490
70.126	491
70.176	498
70.226	496
70.276	496
70.327	497
70.377	493
70.427	493
70.477	490
70.527	483
70.577	482
70.628	471
70.678	470
70.728	464
70.778	456
70.828	456
70.879	453
70.929	448
70.980	449
71.030	447
71.080	448
71.130	450
71.181	452
71.231	457
71.281	462
71.331	465
71.381	472
71.431	474
71.482	482
71.532	487
71.582	489
71.632	495
71.682	497
71.733	496
71.783	499
71.834	495
71.884	495
71.934	493
71.984	487
72.035	485
72.085	479
72.135	471
72.185	468
72.235	462
72.285	458
72.336	455
72.386	449
72.436	448
72.486	449
72.536	446
72.587	449
72.637	448
72.687	453
72.738	458
72.788	460
72.838	468
72.889	474
72.939	478
72.989	485
73.039	486
73.089	493
73.140	497
73.190	496
73.240	501
73.290	499
73.340	496
73.390	496
73.441	490
73.491	487
73.541	482
73.591	474
73.642	470
73.692	465
73.743	458
73.793	455
73.843	449
73.893	446
73.943	445
73.994	443
74.044	447
74.094	449
74.144	450
74.194	455
74.244	459
74.295	466
74.345	471
74.395	476
74.445	483
74.495	489
74.546	493
74.597	498
74.647	497
74.697	502
74.747	502
74.797	498
74.848	498
74.898	494
74.948	488
74.998	485
75.048	476
75.098	472
75.149	466
75.199	459
75.249	455
75.299	451
75.349	445
75.399	445
75.451	442
75.501	443
75.551	446
75.601	448
75.651	454
75.702	459
75.752	463
75.802	471
75.852	475
75.902	483
75.952	489
76.003	493
76.053	499
76.103	500
76.153	502
76.203	503
76.253	498
76.304	501
76.355	496
76.405	490
76.455	487
76.505	478
76.556	472
76.606	466
76.656	458
76.706	455
76.756	449
76.806	444
76.857	443
76.907	441
76.957	441
77.007	445
77.057	447
77.108	452
77.158	458
77.208	462
77.259	470
77.309	475
77.359	482
77.410	490
77.460	493
77.510	500
77.560	503
77.610	502
77.660	506
77.711	501
77.761	499
77.811	497
77.861	490
77.911	486
77.962	480
78.012	471
78.062	467
78.112	457
78.163	452
78.213	449
78.264	443
78.314	443
78.364	442
78.414	441
78.464	444
78.514	446
78.565	451
78.615	457
78.665	462
78.715	470
78.765	477
78.816	481
78.866	490
78.916	493
78.966	499
79.016	503
79.067	502
79.118	506
79.168	503
79.218	499
79.268	497
79.318	489
79.369	485
79.419	480
79.469	470
79.519	466
79.569	460
79.619	452
79.670	448
79.720	443
79.770	441
79.820	443
79.870	441
79.920	444
79.972	447
80.022	451
80.072	458
80.122	461
80.172	470
80.223	477
80.273	481
80.323	490
80.373	494
80.423	497
80.473	502
80.524	500
80.574	503
80.624	503
80.674	497
80.724	497
80.774	491
80.825	484
80.876	481
80.926	470
80.976	466
81.026	461
81.077	453
81.127	451
81.177	447
81.227	443
81.277	444
81.327	442
81.378	446
81.428	450
81.478	450
81.528	458
81.578	463
81.628	467
81.679	477
81.729	480
81.780	488
81.830	492
81.880	494
81.931	501
81.981	499
82.031	500
82.081	501
82.131	497
82.181	496
82.232	491
82.282	484
82.332	481
82.382	474
82.432	467
82.482	463
82.533	455
82.583	452
82.634	449
82.684	446
82.734	446
82.785	447
82.835	446
82.885	449
82.935	451
82.985	457
83.035	462
83.086	466
83.136	474
83.186	479
83.236	483
83.286	491
83.337	492
83.387	498
83.437	500
83.487	498
83.538	500
83.588	495
83.639	494
83.689	492
83.739	485
83.789	483
83.839	476
83.889	469
83.940	465
83.990	459
84.040	454
84.090	452
84.140	447
84.191	447
84.241	447
84.291	446
84.341	449
84.391	450
84.442	454
84.493	460
84.543	464
84.593	472
84.643	477
84.693	480
84.743	488
84.794	489
84.844	495
84.894	498
84.944	496
84.994	500
85.045	499
85.095	494
85.145	494
85.195	486
85.245	483
85.295	481
85.347	472
85.397	467
85.447	464
85.497	457
85.547	455
85.597	449
85.648	447
85.698	447
85.748	446
85.798	448
85.848	451
85.899	452
85.949	458
85.999	461
86.049	468
86.099	474
86.149	477
86.200	486
86.251	490
86.301	491
86.351	498
86.401	496
86.452	499
86.502	500
86.552	496
86.602	496
86.652	492
86.702	485
86.753	483
86.803	474
86.853	469
86.903	465
86.953	458
87.003	455
87.054	450
87.104	446
87.155	447
87.205	444
87.255	444
87.306	448
87.356	449
87.406	455
87.456	461
87.506	464
87.556	472
87.607	475
87.657	483
87.707	489
87.757	491
87.807	498
87.857	499
87.908	500
87.958	502
88.008	498
88.059	498
88.109	495
88.160	487
88.210	485
88.260	478
88.310	471
88.360	467
88.410	459
88.461	456
88.511	452
88.561	446
88.611	446
88.661	446
88.711	444
88.762	447
88.812	447
88.862	453
88.912	457
88.963	463
89.014	469
89.064	476
89.114	481
89.164	488
89.214	489
89.264	498
89.315	500
89.365	499
89.415	502
89.465	498
89.515	498
89.565	496
89.616	489
89.666	487
89.716	480
89.766	472
89.816	468
89.868	462
89.918	456
89.968	452
90.018	447
90.068	445
90.118	444
90.169	443
90.219	445
90.269	447
90.319	451
90.369	457
90.420	461
90.470	468
90.520	475
90.570	479
90.620	486
90.670	490
90.721	496
90.772	499
90.822	500
90.872	502
90.922	502
90.972	497
91.023	497
91.073	489
91.123	486
91.173	482
91.223	473
91.274	470
91.324	463
91.374	455
91.424	452
91.474	447
91.524	444
91.575	444
91.625	442
91.676	445
91.726	447
91.776	450
91.826	456
91.877	459
91.927	467
91.977	474
92.027	478
92.077	486
92.128	491
92.178	494
92.228	499
92.278	499
92.328	502
92.378	503
92.429	499
92.479	499
92.530	494
92.580	488
92.630	484
92.681	474
92.731	470
92.781	464
92.831	455
92.881	453
92.931	449
92.982	444
93.032	444
93.082	442
93.132	444
93.182	447
93.232	448
93.283	455
93.333	461
