#Creator: pendulumdriveEventBuffer
#Creation time: Tue Apr  8 15:09:33 2014
#Time	Pos
#[s]	[au]
0.050	504
0.100	493
0.150	478
0.200	470
0.251	457
0.301	448
0.351	439
0.401	429
0.451	425
0.502	422
0.552	420
0.602	425
0.652	431
0.702	435
0.753	446
0.804	453
0.854	467
0.904	478
0.954	488
1.004	500
1.054	506
1.105	516
1.155	521
1.205	521
1.255	525
1.305	521
1.356	516
1.406	511
1.456	498
1.506	492
1.556	481
1.606	467
1.658	460
1.708	449
1.758	439
1.808	433
1.858	428
1.909	424
1.959	427
2.009	426
2.059	432
2.109	438
2.159	448
2.210	457
2.260	466
2.310	476
2.360	488
2.410	495
2.460	506
2.511	511
2.562	515
2.612	522
2.662	518
2.712	518
2.763	515
2.813	506
2.863	501
2.913	490
2.963	480
3.013	472
3.064	460
3.114	452
3.164	444
3.214	436
3.264	432
3.314	432
3.365	428
3.415	431
3.466	434
3.516	440
3.566	448
3.617	455
3.667	467
3.717	475
3.767	485
3.817	495
3.867	499
3.918	509
3.968	514
4.018	514
4.068	517
4.118	512
4.168	511
4.219	508
4.269	497
4.320	491
4.370	482
4.420	473
4.471	464
4.521	455
4.571	446
4.621	442
4.671	436
4.721	434
4.772	433
4.822	433
4.872	437
4.922	441
4.972	448
5.022	456
5.073	463
5.123	474
5.173	482
5.224	488
5.274	498
5.325	501
5.375	507
5.425	512
5.475	510
5.525	513
5.575	510
5.626	503
5.676	499
5.726	489
5.776	484
5.826	475
5.877	465
5.927	460
5.977	453
6.027	446
6.077	442
6.128	438
6.179	436
6.229	437
6.279	438
6.329	443
6.379	448
6.429	454
6.480	462
6.530	467
6.580	477
6.630	486
6.680	490
6.731	499
6.781	504
6.831	505
6.881	509
6.931	506
6.981	507
7.033	505
7.083	498
7.133	495
7.183	488
7.233	479
7.283	473
7.334	463
7.384	457
7.434	453
7.484	446
7.534	445
7.585	442
7.635	440
7.685	441
7.735	442
7.785	447
7.835	453
7.886	457
7.937	465
7.987	472
8.037	477
8.087	486
8.138	488
8.188	497
8.238	499
8.288	501
8.338	507
8.388	505
8.439	501
8.489	501
8.539	494
8.589	491
8.639	486
8.689	477
8.740	472
8.790	466
8.841	458
8.891	454
8.941	448
8.992	445
9.042	444
9.092	443
9.142	445
9.192	447
9.242	449
9.293	455
9.343	458
9.393	464
9.443	473
9.493	477
9.543	485
9.594	490
9.644	494
9.694	501
9.745	498
9.795	505
9.846	504
9.896	499
9.946	501
9.996	495
10.046	490
10.096	487
10.147	477
10.197	474
10.247	465
10.297	459
10.347	456
10.397	452
10.448	446
10.498	445
10.548	443
10.598	444
10.649	447
10.700	449
10.750	454
10.800	460
10.850	464
10.900	472
10.950	475
11.001	485
11.051	490
11.101	493
11.151	500
11.201	501
11.251	503
11.302	505
11.352	501
11.402	501
11.452	496
11.502	489
11.554	487
11.604	477
11.654	472
11.704	465
11.754	458
11.804	453
11.855	449
11.905	442
11.955	442
12.005	440
12.055	440
12.106	445
12.156	447
12.206	452
12.256	458
12.306	463
12.356	472
12.407	477
12.458	485
12.508	494
12.558	496
12.608	505
12.658	508
12.709	506
12.759	510
12.809	504
12.859	503
12.909	499
12.960	491
13.010	486
13.060	478
13.110	468
13.160	463
13.210	454
13.261	446
13.311	443
13.362	438
13.412	436
13.462	438
13.512	437
13.563	441
13.613	446
13.663	450
13.713	461
13.763	465
13.814	474
13.864	484
13.914	490
13.964	498
14.014	502
14.064	507
14.115	513
14.165	510
14.216	513
14.266	509
14.316	501
14.366	499
14.417	488
14.467	482
14.517	474
14.567	463
14.617	457
14.668	450
14.718	442
14.768	439
14.818	434
14.868	433
14.918	435
14.969	436
15.019	442
15.069	448
15.120	454
15.170	463
15.221	470
15.271	480
15.321	490
15.371	495
15.421	505
15.471	508
15.522	512
15.572	516
15.622	512
15.672	511
15.722	508
15.772	498
15.823	497
15.873	487
15.923	475
15.973	469
16.024	458
16.075	450
16.125	445
16.175	438
16.225	435
16.275	433
16.325	432
16.376	435
16.426	438
16.476	444
16.526	452
16.576	458
16.626	470
16.677	477
16.727	485
16.777	496
16.827	499
16.877	508
16.929	513
16.979	512
17.029	515
17.079	512
17.129	508
17.179	505
17.230	495
17.280	489
17.330	482
17.380	471
17.430	462
17.480	455
17.531	445
17.581	441
17.631	436
17.681	433
17.731	433
17.782	433
17.833	438
17.883	446
17.933	446
17.983	457
18.033	466
18.084	476
18.134	484
18.184	490
18.234	500
18.284	503
18.334	510
18.385	514
18.435	512
18.485	515
18.535	511
18.585	504
18.636	500
18.686	490
18.737	482
18.787	475
18.837	464
18.887	458
18.938	450
18.988	442
19.038	438
19.088	434
19.138	433
19.189	433
19.239	436
19.289	440
19.339	446
19.389	452
19.439	464
19.490	471
19.540	480
19.590	489
19.641	496
19.691	504
19.741	508
19.792	509
19.842	515
19.892	511
19.942	510
19.992	509
20.043	499
20.093	496
20.143	487
20.193	476
20.243	470
20.293	459
20.344	452
20.394	447
20.444	439
20.494	437
20.545	435
20.595	434
20.646	437
20.696	439
20.746	444
20.796	452
20.846	458
20.897	468
20.947	477
20.997	483
21.047	493
21.097	497
21.147	506
21.198	511
21.248	511
21.298	514
21.348	511
21.398	506
21.450	505
21.500	496
21.550	489
21.600	482
21.650	472
21.700	466
21.751	456
21.801	449
21.851	444
21.901	436
21.951	436
22.001	436
22.052	435
22.102	440
22.152	444
22.202	448
22.252	456
22.302	462
22.354	471
22.404	481
22.454	486
22.504	497
22.554	502
22.605	505
22.655	511
22.705	509
22.755	511
22.805	509
22.855	503
22.906	501
22.956	494
23.006	485
23.056	479
23.106	467
23.157	461
23.207	455
23.258	448
23.308	444
23.358	439
23.408	436
23.459	436
23.509	437
23.559	440
23.609	447
23.659	451
23.709	462
23.760	468
23.810	473
23.860	484
23.910	490
23.960	497
24.011	505
24.061	504
24.112	510
24.162	510
24.212	508
24.262	507
24.313	499
24.363	497
24.413	490
24.463	480
24.513	475
24.563	466
24.614	458
24.664	452
24.714	444
24.764	441
24.814	439
24.865	437
24.915	438
24.965	442
25.016	443
25.066	450
25.116	454
25.167	464
25.217	471
25.267	478
25.317	487
25.367	492
25.418	499
25.468	506
25.518	504
25.568	509
25.618	510
25.668	505
25.719	505
25.769	499
25.819	493
25.869	486
25.920	478
25.970	471
26.021	463
26.071	455
26.121	450
26.171	443
26.221	439
26.272	438
26.322	437
26.372	439
26.422	441
26.472	445
26.522	452
26.573	456
26.623	465
26.673	474
26.723	480
26.773	490
26.824	496
26.875	500
26.925	506
26.975	505
27.025	508
27.075	509
27.126	505
27.176	503
27.226	496
27.276	489
27.326	484
27.376	473
27.427	467
27.477	460
27.527	453
27.577	449
27.627	443
27.677	438
27.729	438
27.779	439
27.829	440
27.879	445
27.929	448
27.980	455
28.030	461
28.080	468
28.130	477
28.180	483
28.230	491
28.281	498
28.331	500
28.381	508
28.431	508
28.481	507
28.531	509
28.582	503
28.633	501
28.683	496
28.733	487
28.783	481
28.834	473
28.884	464
28.934	459
28.984	451
29.034	445
29.084	443
29.135	437
29.185	438
29.235	440
29.285	440
29.335	444
29.386	450
29.436	456
29.486	464
29.537	468
29.587	479
29.637	489
29.688	491
29.738	501
29.788	501
29.838	508
29.888	510
29.938	507
29.989	509
30.039	503
30.089	498
30.139	494
30.189	484
30.240	478
30.290	471
30.340	462
30.390	457
30.441	451
30.491	444
30.542	441
30.592	438
30.642	438
30.692	440
30.742	441
30.792	447
30.843	454
30.893	458
30.943	467
30.993	472
31.043	482
31.094	490
31.144	492
31.194	501
31.244	502
31.294	505
31.345	510
31.396	506
31.446	508
31.496	503
31.546	496
31.596	491
31.646	483
31.697	475
31.747	469
31.797	459
31.847	456
31.897	449
31.948	443
31.998	441
32.048	439
32.098	439
32.148	442
32.198	443
32.250	449
32.300	455
32.350	460
32.400	469
32.450	475
32.501	482
32.551	491
32.601	494
32.651	502
32.701	506
32.751	506
32.802	509
32.852	504
32.902	504
32.952	501
33.002	492
33.052	490
33.103	482
33.154	472
33.204	467
33.254	458
33.304	453
33.355	448
33.405	443
33.455	440
33.505	439
33.555	438
33.605	441
33.656	444
33.706	450
33.756	456
33.806	462
33.856	470
33.906	479
33.957	484
34.007	494
34.058	496
34.108	502
34.158	507
34.209	506
34.259	509
34.309	507
34.359	502
34.409	501
34.459	492
34.510	486
34.560	480
34.610	470
34.660	465
34.710	458
34.760	450
34.811	446
34.861	440
34.912	439
34.962	439
35.012	438
35.063	443
35.113	447
35.163	450
35.213	456
35.263	464
35.313	473
35.364	481
35.414	485
35.464	495
35.514	499
35.564	500
35.614	510
35.665	505
35.715	509
35.765	506
35.816	500
35.866	498
35.917	492
35.967	483
36.017	478
36.067	468
36.117	462
36.167	456
36.218	448
36.268	445
36.318	442
36.368	438
36.418	439
36.469	439
36.519	442
36.569	448
36.619	452
36.669	460
36.720	468
36.771	473
36.821	483
36.871	487
36.921	497
36.971	503
37.021	504
37.072	509
37.122	508
37.172	507
37.222	507
37.272	499
37.323	496
37.373	490
37.423	480
37.473	475
37.523	467
37.573	458
37.625	454
37.675	447
37.725	442
37.775	439
37.825	437
37.875	439
37.926	441
37.976	443
38.026	450
38.076	454
38.126	462
38.177	471
38.227	476
38.277	487
38.327	491
38.377	498
38.427	505
38.478	506
38.529	511
38.579	511
38.629	507
38.679	506
38.730	498
38.780	494
38.830	488
38.880	478
38.930	472
38.980	463
39.031	454
39.081	449
39.131	445
39.181	440
39.231	437
39.281	436
39.332	440
39.382	441
39.433	445
39.483	449
39.533	458
39.584	464
39.634	473
39.684	480
39.734	490
39.784	497
39.834	500
39.885	508
39.935	507
39.985	511
40.035	512
40.085	505
40.135	506
40.186	499
40.236	491
40.286	485
40.337	475
40.387	466
40.438	461
40.488	451
40.538	446
40.588	441
40.638	436
40.688	437
40.739	436
40.789	438
40.839	443
40.889	447
40.939	453
40.989	462
41.040	469
41.090	478
41.140	485
41.190	493
41.241	500
41.292	503
41.342	512
41.392	511
41.442	511
41.492	511
41.542	504
41.593	502
41.643	497
41.693	487
41.743	482
41.793	472
41.843	462
41.894	456
41.944	447
41.994	442
42.044	439
42.094	435
42.146	435
42.196	436
42.246	438
42.296	444
42.346	449
42.396	456
42.447	465
42.497	472
42.547	483
42.597	491
42.647	495
42.698	504
42.748	506
42.798	511
42.848	512
42.898	511
42.948	511
42.999	505
43.050	500
43.100	495
43.150	483
43.200	475
43.250	468
43.301	459
43.351	452
43.401	446
43.451	440
43.501	437
43.552	434
43.602	435
43.652	437
43.702	440
43.752	447
43.802	454
43.853	460
43.903	470
43.954	476
44.004	486
44.054	495
44.104	499
44.155	507
44.205	510
44.255	510
44.305	513
44.355	508
44.406	507
44.456	502
44.506	494
44.556	489
44.606	481
44.656	470
44.707	465
44.757	456
44.808	448
44.858	443
44.908	438
44.958	436
45.009	435
45.059	436
45.109	441
45.159	444
45.209	449
45.260	456
45.310	463
45.360	473
45.410	482
45.460	488
45.510	497
45.561	500
45.611	508
45.661	511
45.712	509
45.762	512
45.813	506
45.863	503
45.913	499
45.963	490
46.013	484
46.063	476
46.114	466
46.164	460
46.214	453
46.264	445
46.314	442
46.364	437
46.415	437
46.465	437
46.515	437
46.565	444
46.616	450
46.667	452
46.717	463
46.767	467
46.817	479
46.867	486
46.917	491
46.968	502
47.018	502
47.068	507
47.118	512
47.168	507
47.218	512
47.269	508
47.319	500
47.369	496
47.419	485
47.469	480
47.521	473
47.571	462
47.621	457
47.671	450
47.721	443
47.771	439
47.822	436
47.872	435
47.922	438
47.972	440
48.022	445
48.072	451
48.123	457
48.173	466
48.223	472
48.273	480
48.323	490
48.374	495
48.425	503
48.475	507
48.525	508
48.575	511
48.625	507
48.676	507
48.726	506
48.776	496
48.826	493
48.876	486
48.926	475
48.977	468
49.027	458
49.077	454
49.127	445
49.177	442
49.228	439
49.278	437
49.329	437
49.379	439
49.429	441
49.479	447
49.530	454
49.580	460
49.630	469
49.680	477
49.730	483
49.781	493
49.831	495
49.881	504
49.931	509
49.981	508
50.031	512
50.082	509
50.132	505
50.182	502
50.233	494
50.283	489
50.333	481
50.384	472
50.434	466
50.484	458
50.534	450
50.584	445
50.635	441
50.685	437
50.735	438
50.785	438
50.835	440
50.885	445
50.936	449
50.986	456
51.036	463
51.086	473
51.137	480
51.187	485
51.238	496
51.288	501
51.338	504
51.388	509
51.438	507
51.489	510
51.539	508
51.589	502
51.639	500
51.689	492
51.739	484
51.790	479
51.840	468
51.890	463
51.940	456
51.990	449
52.042	445
52.092	443
52.142	437
52.192	438
52.242	438
