#Creator: pendulumdriveEventBuffer
#Creation time: Tue Apr  8 15:09:33 2014
#Time	Pos
#[s]	[au]
0.049	479
0.100	479
0.151	482
0.201	481
0.251	480
0.301	481
0.351	478
0.402	477
0.452	475
0.502	470
0.552	472
0.602	470
0.652	468
0.703	469
0.753	471
0.803	470
0.853	471
0.903	474
0.953	477
1.005	477
1.055	480
1.105	481
1.155	481
1.205	483
1.256	481
1.306	480
1.356	480
1.406	476
1.456	474
1.506	472
1.557	470
1.607	468
1.657	467
1.707	465
1.757	468
1.807	467
1.858	469
1.909	470
1.959	475
2.009	477
2.059	480
2.110	480
2.160	485
2.210	486
2.260	485
2.310	486
2.360	484
2.411	484
2.461	480
2.511	477
2.561	475
2.611	471
2.662	468
2.712	465
2.762	463
2.813	463
2.863	462
2.913	463
2.964	466
3.014	468
3.064	471
3.114	474
3.164	478
3.214	482
3.265	484
3.315	486
3.365	490
3.415	488
3.465	489
3.516	485
3.566	483
3.616	481
3.666	476
3.717	473
3.767	472
3.818	467
3.868	463
3.918	462
3.968	461
4.018	463
4.068	464
4.119	467
4.169	470
4.219	473
4.269	476
4.319	479
4.370	482
4.420	486
4.470	485
4.520	486
4.570	486
4.621	484
4.672	483
4.722	480
4.772	477
4.822	476
4.872	472
4.922	469
4.973	469
5.023	467
5.073	465
5.123	466
5.173	468
5.224	469
5.274	471
5.324	475
5.374	476
5.424	475
5.475	481
5.526	482
5.576	483
5.626	484
5.676	481
5.726	480
5.777	478
5.827	476
5.877	475
5.927	472
5.977	471
6.027	471
6.078	469
6.128	470
6.178	471
6.228	471
6.278	474
6.328	475
6.380	476
6.430	479
6.480	480
6.530	481
6.580	481
6.631	481
6.681	480
6.731	477
6.781	477
6.831	475
6.881	473
6.932	471
6.982	470
7.032	466
7.082	467
7.132	467
7.182	467
7.233	470
7.284	471
7.334	473
7.384	476
7.434	479
7.485	482
7.535	483
7.585	484
7.635	487
7.685	486
7.735	485
7.786	483
7.836	480
7.886	478
7.936	474
7.986	471
8.036	469
8.087	465
8.137	465
8.188	462
8.238	464
8.288	464
8.339	465
8.389	468
8.439	473
8.489	477
8.539	480
8.589	482
8.640	486
8.690	490
8.740	488
8.790	489
8.840	490
8.890	485
8.941	484
8.991	480
9.041	476
9.092	474
9.142	469
9.193	466
9.243	464
9.293	461
9.343	462
9.393	462
9.443	463
9.494	467
9.544	468
9.594	472
9.644	478
9.694	479
9.745	482
9.795	485
9.845	485
9.895	490
9.945	487
9.996	486
10.047	484
10.097	480
10.147	479
10.197	477
10.247	471
10.297	469
10.348	468
10.398	465
10.448	465
10.498	464
10.548	465
10.599	466
10.649	469
10.699	473
10.749	474
10.799	478
10.849	481
10.901	481
10.951	483
11.001	484
11.051	483
11.101	484
11.151	481
11.202	478
11.252	478
11.302	475
11.352	472
11.402	471
11.453	469
11.503	470
11.553	469
11.603	468
11.653	470
11.703	471
11.754	473
11.805	474
11.855	478
11.905	480
11.955	480
12.006	481
12.056	482
12.106	480
12.156	480
12.206	479
12.256	476
12.307	476
12.357	472
12.407	470
12.457	470
12.507	468
12.557	468
12.608	468
12.658	469
12.709	472
12.759	473
12.809	478
12.860	479
12.910	479
12.960	484
13.010	482
13.060	484
13.110	484
13.161	482
13.211	483
13.261	479
13.311	477
13.361	474
13.411	470
13.462	468
13.512	467
13.562	465
13.613	464
13.663	465
13.714	465
13.764	467
13.814	469
13.864	472
13.914	477
13.964	479
14.015	483
14.065	484
14.115	486
14.165	489
14.215	488
14.265	486
14.316	486
14.366	482
14.416	479
14.466	474
14.517	473
14.568	468
14.618	465
14.668	465
14.718	463
14.768	463
14.818	461
14.869	466
14.919	465
14.969	470
15.019	473
15.069	477
15.119	482
15.170	483
15.220	487
15.270	487
15.320	488
15.370	489
15.422	486
15.472	484
15.522	482
15.572	478
15.622	474
15.672	471
15.723	467
15.773	466
15.823	464
15.873	463
15.923	464
15.974	464
16.024	468
16.074	468
16.124	472
16.174	477
16.224	478
16.275	480
16.326	484
16.376	484
16.426	484
16.476	484
16.526	484
16.577	481
16.627	480
16.677	476
16.727	476
16.777	471
16.828	469
16.878	467
16.928	466
16.978	468
17.028	467
17.078	469
17.129	471
17.179	472
17.230	474
17.280	476
17.330	480
17.380	482
17.431	481
17.481	482
17.531	482
17.581	481
17.631	481
17.682	478
17.732	476
17.782	475
17.832	471
17.882	470
17.932	468
17.983	467
18.033	468
18.084	468
18.134	469
18.184	472
18.234	473
18.285	475
18.335	479
18.385	480
18.435	483
18.485	483
18.536	483
18.586	484
18.636	482
18.686	480
18.736	479
18.786	475
18.837	474
18.887	469
18.937	468
18.988	467
19.038	465
19.089	466
19.139	467
19.189	466
19.239	470
19.289	472
19.339	475
19.390	481
19.440	479
19.490	484
19.540	485
19.590	487
19.640	487
19.691	484
19.741	485
19.791	482
19.841	479
19.892	475
19.943	473
19.993	469
20.043	466
20.093	464
20.143	463
20.193	463
20.244	463
20.294	464
20.344	468
20.394	470
20.444	474
20.494	477
20.545	480
20.595	485
20.645	486
20.695	487
20.745	488
20.797	487
20.847	487
20.897	483
20.947	481
20.997	479
21.047	474
21.098	471
21.148	466
21.198	465
21.248	462
21.298	462
21.348	461
21.399	464
21.449	466
21.499	467
21.549	471
21.599	475
21.650	479
21.701	482
21.751	484
21.801	487
21.851	486
21.901	487
21.952	485
22.002	484
22.052	483
22.102	478
22.152	476
22.202	474
22.253	470
22.303	467
22.353	466
22.403	465
22.453	466
22.504	465
22.554	467
22.605	472
22.655	470
22.705	477
22.755	478
22.806	478
22.856	483
22.906	483
22.956	482
23.006	485
23.057	482
23.107	481
23.157	477
23.207	476
23.257	475
23.307	472
23.358	470
23.408	470
23.458	468
23.509	468
23.559	469
23.609	470
23.660	474
23.710	474
23.760	476
23.810	479
23.860	480
23.911	481
23.961	482
24.011	483
24.061	482
24.111	480
24.161	479
24.212	477
24.262	474
24.312	472
24.362	469
24.413	469
24.463	468
24.514	466
24.564	467
24.614	471
24.664	470
24.714	472
24.765	474
24.815	477
24.865	481
24.915	484
24.965	484
25.015	486
25.066	485
25.116	485
25.166	483
25.216	481
25.266	479
25.318	475
25.368	472
25.418	470
25.468	466
25.518	465
25.568	463
25.619	464
25.669	464
25.719	464
25.769	466
25.819	472
25.869	474
25.920	477
25.970	478
26.020	485
26.070	488
26.120	488
26.170	488
26.222	488
26.272	485
26.322	485
26.372	480
26.422	477
26.473	475
26.523	469
26.573	466
26.623	465
26.673	462
26.723	462
26.774	461
26.824	463
26.874	466
26.924	468
26.974	472
27.025	476
27.075	479
27.126	483
27.176	485
27.226	487
27.276	489
27.327	488
27.377	488
27.427	486
27.477	482
27.527	481
27.577	473
27.628	471
27.678	470
27.728	466
27.778	465
27.828	466
27.879	464
27.929	466
27.980	466
28.030	470
28.080	471
28.130	473
28.181	476
28.231	479
28.281	481
28.331	484
28.381	484
28.431	485
28.482	485
28.532	482
28.582	481
28.632	477
28.682	475
28.733	474
28.783	471
28.833	469
28.884	468
28.934	467
28.984	468
29.035	467
29.085	469
29.135	472
29.185	475
29.235	475
29.286	478
29.336	478
29.386	480
29.436	482
29.486	482
29.536	482
29.587	479
29.637	479
29.687	477
29.737	474
29.788	472
29.838	469
29.889	468
29.939	469
29.989	467
30.039	468
30.089	470
30.140	470
30.190	473
30.240	475
30.290	476
30.340	481
30.390	480
30.441	482
30.491	483
30.541	482
30.591	483
30.641	481
30.692	478
30.743	478
30.793	474
30.843	471
30.893	470
30.943	466
30.994	466
31.044	465
31.094	467
31.144	466
31.194	468
31.244	471
31.295	475
31.345	476
31.395	481
31.445	482
31.495	484
31.545	487
31.597	487
31.647	486
31.697	486
31.747	483
31.797	480
31.848	477
31.898	473
31.948	471
31.998	466
32.048	464
32.098	464
32.149	461
32.199	462
32.249	463
32.299	465
32.349	469
32.399	470
32.450	475
32.501	480
32.551	482
32.601	486
32.651	487
32.702	491
32.752	491
32.802	487
32.852	486
32.902	483
32.952	480
33.003	477
33.053	471
33.103	468
33.153	467
33.203	463
33.254	462
33.304	462
33.354	462
33.405	464
33.455	466
33.505	468
33.556	473
33.606	476
33.656	479
33.706	483
33.756	485
33.806	487
33.857	487
33.907	487
33.957	487
34.007	482
34.057	480
34.108	478
34.158	475
34.208	472
34.258	468
34.309	465
34.359	464
34.410	465
34.460	464
34.510	467
34.560	467
34.610	470
34.660	472
34.711	476
34.761	479
34.811	480
34.861	483
34.911	483
34.962	484
35.012	485
35.062	482
35.112	481
35.162	480
35.213	477
35.264	473
35.314	472
35.364	469
35.414	468
35.464	466
35.514	466
35.565	467
35.615	466
35.665	470
35.715	471
35.765	474
35.816	480
35.866	480
35.916	481
35.966	485
36.016	482
36.066	481
36.118	482
36.168	479
36.218	478
36.268	474
36.318	473
36.369	472
36.419	469
36.469	468
36.519	466
36.569	467
36.619	468
36.670	468
36.720	470
36.770	473
36.820	476
36.870	478
36.920	480
36.971	482
37.022	485
37.072	485
37.122	484
37.172	485
37.223	483
37.273	480
37.323	476
37.373	475
37.423	474
37.473	469
37.524	465
37.574	465
37.624	463
37.674	463
37.724	465
37.774	468
37.825	470
37.875	474
37.926	476
37.976	480
38.026	482
38.077	485
38.127	486
38.177	488
38.227	489
38.277	486
38.327	484
38.378	483
38.428	479
38.478	475
38.528	471
38.578	468
38.628	466
38.679	463
38.729	461
38.780	462
38.830	462
38.880	465
38.931	467
38.981	470
39.031	476
39.081	476
39.131	480
39.181	485
39.232	485
39.282	489
39.332	488
39.382	488
39.432	488
39.482	484
39.533	481
39.583	478
39.633	473
39.684	470
39.734	468
39.785	465
39.835	464
39.885	462
39.935	463
39.985	465
40.035	466
40.086	469
40.136	471
40.186	475
40.236	479
40.286	480
40.337	484
40.387	486
40.437	484
40.487	487
40.537	485
40.588	481
40.639	481
40.689	478
40.739	475
40.789	473
40.839	469
40.889	469
40.940	464
40.990	466
41.040	467
41.090	467
41.140	468
41.191	471
41.241	473
41.291	476
41.341	478
41.391	480
41.441	483
41.493	483
41.543	483
41.593	483
41.643	481
41.693	480
41.743	477
41.794	475
41.844	474
41.894	471
41.944	469
41.994	468
42.045	466
42.095	470
42.145	469
42.195	472
42.245	473
42.295	473
42.346	476
42.397	478
42.447	482
42.497	483
42.547	482
42.598	483
42.648	484
42.698	481
42.748	479
42.798	476
42.848	474
42.899	473
42.949	469
42.999	467
43.049	467
43.099	464
43.149	464
43.200	466
43.250	467
43.301	471
43.351	473
43.401	475
43.452	480
43.502	481
43.552	485
43.602	487
43.652	486
43.702	487
43.753	486
43.803	484
43.853	481
43.903	477
43.953	476
44.003	470
44.054	466
44.104	466
44.154	464
44.205	462
44.255	463
44.306	462
44.356	465
44.406	467
44.456	470
44.506	476
44.556	477
44.607	482
44.657	485
44.707	486
44.757	489
44.807	488
44.857	488
44.908	488
44.958	485
45.008	480
45.058	478
45.109	474
45.160	470
45.210	467
45.260	465
45.310	463
45.360	462
45.410	462
45.461	464
45.511	465
45.561	469
45.611	474
45.661	475
45.711	480
45.762	483
45.812	484
45.862	487
45.912	487
45.962	488
46.014	485
46.064	484
46.114	482
46.164	478
46.214	475
46.264	473
46.315	469
46.365	467
46.415	465
46.465	464
