#Creator: pendulumdriveEventBuffer
#Creation time: Tue Apr  8 15:09:33 2014
#Time	Pos
#[s]	[au]
0.050	481
0.101	482
0.151	481
0.201	481
0.251	479
0.301	477
0.351	475
0.402	474
0.452	470
0.502	470
0.552	469
0.602	468
0.652	470
0.703	469
0.753	471
0.803	473
0.853	476
0.903	480
0.955	479
1.005	481
1.055	482
1.105	482
1.155	481
1.205	481
1.256	480
1.306	478
1.356	476
1.406	474
1.456	475
1.506	469
1.557	467
1.607	467
1.657	466
1.707	468
1.757	468
1.808	470
1.859	474
1.909	476
1.959	479
2.009	480
2.059	482
2.110	484
2.160	484
2.210	484
2.260	483
2.310	481
2.361	479
2.411	476
2.461	472
2.511	471
2.561	468
2.611	466
2.662	466
2.712	464
2.763	466
2.813	467
2.863	470
2.913	474
2.964	473
3.014	477
3.064	481
3.114	481
3.164	483
3.215	483
3.265	484
3.315	484
3.365	481
3.415	480
3.465	477
3.516	474
3.566	472
3.616	470
3.667	468
3.717	468
3.767	467
3.818	467
3.868	469
3.918	471
3.968	473
4.018	474
4.069	477
4.119	480
4.169	480
4.219	481
4.269	481
4.319	481
4.370	482
4.420	478
4.470	477
4.520	475
4.571	473
4.621	471
4.672	470
4.722	468
4.772	469
4.822	468
4.872	469
4.923	472
4.973	473
5.023	475
5.073	477
5.123	478
5.173	481
5.224	482
5.274	481
5.324	483
5.374	480
5.424	479
5.476	476
5.526	475
5.576	473
5.626	471
5.676	470
5.726	469
5.777	468
5.827	468
5.877	468
5.927	472
5.977	473
6.027	474
6.078	478
6.128	481
6.178	481
6.228	482
6.278	483
6.329	483
6.380	484
6.430	482
6.480	480
6.530	478
6.580	476
6.631	472
6.681	469
6.731	468
6.781	466
6.831	465
6.881	466
6.932	467
6.982	468
7.032	471
7.082	473
7.132	475
7.183	480
7.233	481
7.284	483
7.334	485
7.384	484
7.434	485
7.485	484
7.535	480
7.585	478
7.635	476
7.685	474
7.735	472
7.786	467
7.836	466
7.886	466
7.936	465
7.986	467
8.037	469
8.087	470
8.138	475
8.188	475
8.238	478
8.288	479
8.339	481
8.389	483
8.439	484
8.489	483
8.539	482
8.589	480
8.640	478
8.690	476
8.740	474
8.790	472
8.840	471
8.891	469
8.941	470
8.991	469
9.042	471
9.092	471
9.142	472
9.193	477
9.243	477
9.293	478
9.343	480
9.393	480
9.444	482
9.494	480
9.544	480
9.594	480
9.644	478
9.694	474
9.745	473
9.795	471
9.845	471
9.895	469
9.946	469
9.996	470
10.047	470
10.097	471
10.147	474
10.197	475
10.247	477
10.298	479
10.348	481
10.398	483
10.448	482
10.498	482
10.548	481
10.599	480
10.649	478
10.699	475
10.749	473
10.799	472
10.850	470
10.901	468
10.951	467
11.001	468
11.051	468
11.101	471
11.152	472
11.202	475
11.252	475
11.302	478
11.352	481
11.402	483
11.453	484
11.503	483
11.553	483
11.603	483
11.653	480
11.703	478
11.755	475
11.805	473
11.855	470
11.905	469
11.955	467
12.006	467
12.056	465
12.106	467
12.156	468
12.206	470
12.256	473
12.307	475
12.357	478
12.407	481
12.457	481
12.507	483
12.557	483
12.608	484
12.659	483
12.709	480
12.759	479
12.809	478
12.860	474
12.910	474
12.960	469
13.010	466
13.060	468
13.110	467
13.161	468
13.211	470
13.261	471
13.311	473
13.361	476
13.412	477
13.462	480
13.512	481
13.563	481
13.613	483
13.663	481
13.714	480
13.764	478
13.814	477
13.864	475
13.914	472
13.964	471
14.015	469
14.065	469
14.115	469
14.165	470
14.215	468
14.266	472
14.316	474
14.366	475
14.416	480
14.467	480
14.517	480
14.568	482
14.618	481
14.668	482
14.718	481
14.768	480
14.818	478
14.869	476
14.919	473
14.969	471
15.019	468
15.069	468
15.120	467
15.170	467
15.220	469
15.270	470
15.320	472
15.371	474
15.422	476
15.472	480
15.522	481
15.572	483
15.622	484
15.673	482
15.723	483
15.773	480
15.823	480
15.873	478
15.923	475
15.974	471
16.024	472
16.074	470
16.124	465
16.174	465
16.224	467
16.276	468
16.326	469
16.376	472
16.426	474
16.476	477
16.527	479
16.577	481
16.627	483
16.677	484
16.727	483
16.777	483
16.828	482
16.878	479
16.928	478
16.978	475
17.028	472
17.078	470
17.129	468
17.180	467
17.230	467
17.280	467
17.330	468
17.381	471
17.431	472
17.481	475
17.531	477
17.581	478
17.631	480
17.682	482
17.732	482
17.782	482
17.832	482
17.882	480
17.932	479
17.983	476
18.033	476
18.084	471
18.134	469
18.184	469
18.235	468
18.285	469
18.335	468
18.385	470
18.435	472
18.485	474
18.536	476
18.586	478
18.636	480
18.686	482
18.736	483
18.786	482
18.837	482
18.887	481
18.938	479
18.988	478
19.038	476
19.089	475
19.139	471
19.189	470
19.239	467
19.289	467
19.339	470
19.390	468
19.440	471
19.490	473
19.540	474
19.590	477
19.641	479
19.691	480
19.741	483
19.791	483
19.842	483
19.892	484
19.943	482
19.993	479
20.043	476
20.093	474
20.143	472
20.193	470
20.244	468
20.294	468
20.344	466
20.394	467
20.444	469
20.495	469
20.545	473
20.595	475
20.645	476
20.695	481
20.746	481
20.797	484
20.847	484
20.897	484
20.947	483
20.997	479
21.047	479
21.098	475
21.148	475
21.198	473
21.248	469
21.298	467
21.349	466
21.399	467
21.449	467
21.499	470
21.549	471
21.599	473
21.651	475
21.701	477
21.751	480
21.801	481
21.851	483
21.901	484
21.952	483
22.002	483
22.052	481
22.102	477
22.152	477
22.203	473
22.253	470
22.303	473
22.353	469
22.403	467
22.453	466
22.504	468
22.555	470
22.605	470
22.655	473
22.705	477
22.756	478
22.806	479
22.856	481
22.906	482
22.956	484
23.006	484
23.057	482
23.107	481
23.157	477
23.207	476
23.257	474
23.307	471
23.358	470
23.408	468
23.459	468
23.509	468
23.559	468
23.610	470
23.660	471
23.710	474
23.760	478
23.810	479
23.860	481
23.911	483
23.961	482
24.011	484
24.061	483
24.111	481
24.161	479
24.212	475
24.262	474
24.312	474
24.363	468
24.413	469
24.464	467
24.514	468
24.564	468
24.614	469
24.664	470
24.714	473
24.765	475
24.815	478
24.865	479
24.915	481
24.965	484
25.015	483
25.066	483
25.116	482
25.166	480
25.216	479
25.267	475
25.318	474
25.368	472
25.418	470
25.468	468
25.518	467
25.568	467
25.619	467
25.669	469
25.719	471
25.769	475
25.819	474
25.869	477
25.920	480
25.970	482
26.020	484
26.070	482
26.120	483
26.172	483
26.222	479
26.272	478
26.322	475
26.372	473
26.422	471
26.473	469
26.523	467
26.573	468
26.623	467
26.673	468
26.724	469
26.774	472
26.824	474
26.874	475
26.924	478
26.974	481
27.025	481
27.076	483
27.126	482
27.176	482
27.226	481
27.276	478
27.327	477
27.377	476
27.427	471
27.477	471
27.527	468
27.578	468
27.628	469
27.678	468
27.728	468
27.778	471
27.828	473
27.879	474
27.929	476
27.980	479
28.030	481
28.080	482
28.130	482
28.181	484
28.231	481
28.281	480
28.331	478
28.381	476
28.432	474
28.482	472
28.532	469
28.582	470
28.632	468
28.682	468
28.733	468
28.783	469
28.834	472
28.884	473
28.934	476
28.985	480
29.035	479
29.085	481
29.135	482
29.185	483
29.235	483
29.286	481
29.336	478
29.386	479
29.436	476
29.486	471
29.536	470
29.587	468
29.637	469
29.687	467
29.738	467
29.788	469
29.839	470
29.889	472
29.939	474
29.989	477
30.039	480
30.089	480
30.140	483
30.190	483
30.240	483
30.290	482
30.340	481
30.390	479
30.441	477
30.491	474
30.541	471
30.591	472
30.642	469
30.693	467
30.743	467
30.793	469
30.843	470
30.893	471
30.943	472
30.994	474
31.044	477
31.094	479
31.144	482
31.194	481
31.244	484
31.295	482
31.345	483
31.395	480
31.445	479
31.495	477
31.547	474
31.597	472
31.647	470
31.697	468
31.747	468
31.797	467
31.848	467
31.898	469
31.948	471
31.998	472
32.048	477
32.098	478
32.149	479
32.199	482
32.249	482
32.299	483
32.349	484
32.400	482
32.451	480
32.501	478
32.551	475
32.601	473
32.651	470
32.702	470
32.752	468
32.802	466
32.852	468
32.902	467
32.953	470
33.003	472
33.053	473
33.103	476
33.153	479
33.203	480
33.254	483
33.304	483
33.355	483
33.405	482
33.455	481
33.505	480
33.556	477
33.606	475
33.656	474
33.706	470
33.756	469
33.807	467
33.857	467
33.907	467
33.957	468
34.007	469
34.057	473
34.108	474
34.158	478
34.208	479
34.259	480
34.309	483
34.359	483
34.410	484
34.460	484
34.510	481
34.560	480
34.610	476
34.661	476
34.711	473
34.761	470
34.811	468
34.861	468
34.911	467
34.962	467
35.012	468
35.062	470
35.112	473
35.163	474
35.213	477
35.264	480
35.314	480
35.364	482
35.414	483
35.464	482
35.515	482
35.565	481
35.615	479
35.665	477
35.715	474
35.765	471
35.816	470
35.866	470
35.916	469
35.966	466
36.016	467
36.068	469
36.118	470
36.168	474
36.218	475
36.268	478
36.318	479
36.369	480
36.419	482
36.469	483
36.519	482
36.569	481
36.619	480
36.670	477
36.720	474
36.770	473
36.820	471
36.870	470
36.921	468
36.972	468
37.022	468
37.072	468
37.122	469
37.172	471
37.223	474
37.273	478
37.323	478
37.373	481
37.423	483
37.473	483
37.524	485
37.574	481
37.624	480
37.674	479
37.724	476
37.775	474
37.825	472
37.876	471
37.926	469
37.976	467
38.026	467
38.077	469
38.127	469
38.177	471
38.227	472
38.277	475
38.327	478
38.378	479
38.428	482
38.478	483
38.528	483
38.578	483
38.629	482
38.679	481
38.730	480
38.780	476
38.830	474
38.880	471
38.931	468
38.981	468
39.031	468
39.081	466
39.131	469
39.181	469
39.232	470
39.282	472
39.332	474
39.382	479
39.432	480
39.483	482
39.533	482
39.583	482
39.634	482
39.684	481
39.734	480
39.785	478
39.835	475
39.885	473
39.935	472
39.985	469
40.036	468
40.086	467
40.136	467
40.186	468
40.236	470
40.286	472
40.337	476
40.387	477
40.437	479
40.487	481
40.538	483
40.588	482
40.639	483
40.689	482
40.739	482
40.789	479
40.839	475
40.890	476
40.940	472
40.990	469
41.040	469
41.090	466
41.140	468
41.191	467
41.241	468
41.291	471
41.341	472
41.391	475
41.442	476
41.493	479
41.543	482
41.593	483
41.643	483
41.693	483
41.744	482
41.794	482
41.844	479
41.894	477
41.944	475
41.994	472
42.045	469
42.095	468
42.145	467
42.195	468
42.245	467
42.295	467
42.347	470
42.397	471
42.447	475
42.497	477
42.547	478
42.598	482
42.648	483
42.698	482
42.748	486
42.798	482
42.848	480
42.899	478
42.949	477
42.999	474
43.049	471
43.099	470
43.149	469
43.200	468
43.251	468
43.301	467
43.351	469
43.401	471
43.452	473
43.502	475
43.552	481
43.602	479
43.652	481
43.702	482
43.753	482
43.803	483
43.853	480
43.903	480
43.953	478
44.004	475
44.054	473
44.104	470
44.155	469
44.205	469
44.255	468
44.306	469
44.356	468
44.406	470
44.456	473
44.506	474
44.556	476
44.607	480
44.657	481
44.707	482
44.757	482
44.807	482
44.858	481
44.908	480
44.958	478
45.008	477
45.059	473
45.109	471
45.160	471
45.210	468
45.260	468
45.310	467
45.360	469
45.410	471
45.461	472
45.511	474
45.561	476
45.611	477
45.661	480
45.712	481
45.762	482
45.812	483
45.862	480
45.912	482
45.963	480
46.014	477
46.064	474
46.114	473
46.164	469
46.214	469
46.265	467
46.315	467
46.365	467
46.415	467
46.465	470
46.515	472
46.566	474
46.616	478
46.666	479
46.716	481
46.766	482
46.816	483
46.868	485
46.918	484
46.968	482
47.018	481
47.068	478
47.119	475
47.169	472
47.219	471
47.269	466
47.319	468
47.369	466
47.420	468
47.470	467
47.520	468
47.570	473
47.620	475
47.670	476
47.721	477
47.772	482
47.822	484
47.872	483
47.922	483
47.973	483
48.023	481
48.073	480
48.123	477
48.173	475
48.223	474
48.274	471
48.324	469
48.374	467
48.424	467
48.474	468
48.524	468
48.575	470
48.625	472
48.676	473
48.726	476
48.776	478
48.827	480
48.877	484
48.927	482
48.977	483
49.027	483
49.077	482
49.128	479
49.178	478
49.228	475
49.278	471
49.328	471
49.378	470
49.429	469
49.479	467
49.530	468
49.580	469
49.630	470
49.681	473
49.731	474
49.781	477
49.831	480
49.881	480
49.931	481
49.982	483
50.032	482
50.082	481
50.132	479
50.182	478
50.233	479
50.283	473
50.333	470
50.383	470
50.434	468
50.484	469
50.535	469
50.585	468
50.635	472
50.685	471
50.735	474
50.785	476
50.836	477
50.886	480
50.936	480
50.986	483
51.036	483
51.087	482
51.137	482
51.187	479
51.237	478
51.287	474
51.338	473
51.389	471
51.439	469
51.489	467
51.539	467
51.589	467
51.639	468
51.690	469
51.740	471
51.790	473
51.840	478
51.890	478
51.941	481
51.991	483
52.041	484
52.091	483
52.141	484
52.191	482
52.243	479
52.293	478
52.343	474
52.393	474
52.443	471
52.493	468
52.544	465
52.594	465
52.644	467
52.694	468
52.744	468
52.795	471
52.845	473
52.895	477
52.945	478
52.995	481
53.045	482
53.096	483
53.147	484
53.197	483
53.247	482
53.297	482
53.348	478
53.398	476
53.448	473
53.498	470
53.548	469
53.598	468
53.649	468
53.699	468
53.749	468
53.799	468
53.849	472
53.899	474
53.950	474
54.000	476
54.051	481
54.101	483
54.151	482
54.202	485
54.252	484
