\relax 
\catcode`"\active
\select@language{italian}
\@writefile{toc}{\select@language{italian}}
\@writefile{lof}{\select@language{italian}}
\@writefile{lot}{\select@language{italian}}
\select@language{italian}
\@writefile{toc}{\select@language{italian}}
\@writefile{lof}{\select@language{italian}}
\@writefile{lot}{\select@language{italian}}
\@writefile{lof}{\contentsline {figure}{\numberline {1}{\ignorespaces Schema ottico per la lente convergente.}}{1}}
\newlabel{fig:convergente}{{1}{1}}
\@writefile{lof}{\contentsline {figure}{\numberline {2}{\ignorespaces Schema ottico per la lente divergente. Notare che la sorgente per la lente divergente \`e virtuale.}}{1}}
\newlabel{fig:divergente}{{2}{1}}
\select@language{italian}
\@writefile{toc}{\select@language{italian}}
\@writefile{lof}{\select@language{italian}}
\@writefile{lot}{\select@language{italian}}
