\relax 
\@writefile{toc}{\contentsline {section}{\numberline {1}Obiettivi}{1}}
\@writefile{toc}{\contentsline {section}{\numberline {2}Apparato sperimentale}{1}}
\@writefile{toc}{\contentsline {section}{\numberline {3}Richiami teorici}{1}}
\@writefile{toc}{\contentsline {section}{\numberline {4}Dati raccolti}{2}}
\@writefile{toc}{\contentsline {section}{\numberline {5}Analisi dei dati}{2}}
\@writefile{toc}{\contentsline {section}{\numberline {6}Conclusioni}{5}}
