\relax 
\@writefile{toc}{\contentsline {section}{\numberline {1}Obiettivi}{1}}
\@writefile{toc}{\contentsline {section}{\numberline {2}Materiale utilizzato}{1}}
\@writefile{toc}{\contentsline {section}{\numberline {3}Layout sperimentale}{2}}
\@writefile{lof}{\contentsline {figure}{\numberline {1}{\ignorespaces Schematizzazione dell'apparato sperimentale e definizioni di base.}}{2}}
\newlabel{fig:pendolo}{{1}{2}}
\@writefile{toc}{\contentsline {section}{\numberline {4}Richiami teorici}{2}}
\newlabel{eq:period}{{2}{2}}
\@writefile{toc}{\contentsline {section}{\numberline {5}Dati raccolti}{3}}
