#Creator: pendulumEventBuffer
#Creation time: Mon Aug 26 18:42:26 2013
#Time	Period	Transit time
#[s]	[s]	[s]
225.140546	2.142324	0.021548
226.206900	2.142308	0.021616
227.282902	2.142236	0.021644
228.349186	2.142212	0.021716
229.425164	2.142132	0.021744
230.491368	2.142096	0.021816
231.567308	2.142024	0.021840
232.633440	2.141992	0.021912
233.709352	2.141932	0.021944
234.775424	2.141916	0.022016
235.851320	2.141852	0.022048
236.917328	2.141832	0.022120
237.993204	2.141764	0.022152
239.059142	2.141740	0.022220
240.134990	2.141696	0.022244
241.200890	2.141668	0.022324
242.276712	2.141572	0.022352
243.342514	2.141556	0.022428
244.418320	2.141504	0.022456
245.484068	2.141496	0.022528
246.559864	2.141408	0.022552
247.625524	2.141380	0.022624
248.701300	2.141332	0.022664
249.766910	2.141300	0.022732
250.842650	2.141232	0.022764
251.908194	2.141228	0.022836
252.983932	2.141168	0.022872
254.049414	2.141144	0.022940
255.125128	2.141088	0.022976
256.190554	2.141072	0.023044
257.266252	2.140996	0.023080
258.331602	2.140968	0.023148
259.407272	2.140916	0.023184
260.472570	2.140904	0.023252
261.548230	2.140832	0.023292
262.613456	2.140828	0.023360
263.689108	2.140760	0.023392
264.754272	2.140748	0.023472
265.829910	2.140696	0.023500
266.895016	2.140676	0.023568
267.970642	2.140608	0.023612
269.035680	2.140596	0.023680
270.111290	2.140524	0.023716
271.176256	2.140524	0.023784
272.251866	2.140448	0.023820
273.316758	2.140420	0.023892
274.392342	2.140376	0.023932
275.457190	2.140352	0.024004
276.532746	2.140292	0.024036
277.597536	2.140276	0.024112
278.673078	2.140208	0.024148
279.737800	2.140204	0.024224
280.813338	2.140132	0.024260
281.877982	2.140116	0.024324
282.953504	2.140056	0.024360
284.018094	2.140032	0.024436
285.093592	2.139956	0.024472
286.158104	2.139940	0.024544
287.233588	2.139892	0.024584
288.298050	2.139876	0.024652
289.373518	2.139816	0.024692
290.437924	2.139812	0.024768
291.513384	2.139724	0.024800
292.577702	2.139724	0.024876
293.653164	2.139676	0.024912
294.717434	2.139652	0.024988
295.792874	2.139596	0.025028
296.857084	2.139584	0.025096
297.932510	2.139524	0.025132
298.996664	2.139528	0.025208
300.072094	2.139496	0.025244
301.136214	2.139476	0.025316
302.211626	2.139376	0.025356
303.275650	2.139344	0.025436
304.351030	2.139300	0.025476
305.415006	2.139292	0.025548
306.490378	2.139240	0.025588
307.554302	2.139240	0.025660
308.629678	2.139160	0.025708
309.693516	2.139224	0.025768
310.768954	2.139120	0.025812
311.832696	2.139108	0.025888
312.908124	2.139056	0.025936
313.971810	2.139060	0.026004
315.047240	2.138988	0.026048
316.110856	2.138980	0.026120
317.186274	2.138904	0.026156
318.249820	2.138896	0.026240
319.325234	2.138856	0.026284
320.388730	2.138840	0.026348
321.464128	2.138784	0.026392
322.527574	2.138764	0.026468
323.602952	2.138724	0.026512
324.666356	2.138716	0.026584
325.741726	2.138668	0.026628
326.805082	2.138660	0.026700
327.880444	2.138596	0.026744
328.943740	2.138596	0.026824
330.019102	2.138536	0.026868
331.082334	2.138524	0.026940
332.157682	2.138480	0.026980
333.220872	2.138480	0.027056
334.296226	2.138420	0.027108
335.359354	2.138416	0.027180
336.434698	2.138376	0.027220
337.497788	2.138356	0.027296
338.573116	2.138304	0.027344
339.636150	2.138300	0.027412
340.711474	2.138240	0.027460
341.774448	2.138248	0.027528
342.849788	2.138144	0.027592
343.912658	2.138188	0.027660
344.988028	2.138116	0.027696
346.050836	2.138092	0.027784
347.126182	2.138056	0.027820
348.188950	2.138060	0.027900
349.264304	2.137988	0.027944
350.326998	2.138004	0.028020
351.402370	2.137936	0.028068
352.464998	2.137900	0.028148
353.540330	2.137876	0.028188
354.602932	2.137888	0.028264
355.678280	2.137848	0.028312
356.740846	2.137828	0.028396
357.816172	2.137796	0.028440
358.878700	2.137796	0.028512
359.954028	2.137756	0.028560
361.016518	2.137716	0.028636
362.091806	2.137668	0.028684
363.154250	2.137692	0.028764
364.229556	2.137632	0.028800
365.291946	2.137644	0.028892
366.367264	2.137584	0.028928
367.429590	2.137580	0.029012
368.504906	2.137512	0.029052
369.567166	2.137528	0.029140
370.642498	2.137476	0.029180
371.704702	2.137472	0.029260
372.780030	2.137408	0.029300
373.842176	2.137404	0.029392
374.917498	2.137364	0.029428
375.979602	2.137364	0.029516
377.054924	2.137292	0.029552
378.116956	2.137304	0.029640
379.192292	2.137244	0.029680
380.254266	2.137228	0.029772
381.329588	2.137184	0.029816
382.391514	2.137204	0.029900
383.466856	2.137152	0.029944
384.528734	2.137152	0.030036
385.604070	2.137092	0.030068
386.665890	2.137092	0.030164
387.741226	2.137052	0.030196
388.803008	2.137052	0.030296
389.878346	2.137008	0.030332
390.940080	2.136964	0.030424
392.015372	2.136892	0.030456
393.077034	2.136896	0.030548
394.152332	2.136872	0.030584
395.213972	2.136876	0.030680
396.289276	2.136824	0.030720
397.350864	2.136840	0.030816
398.426178	2.136768	0.030844
