\relax 
\@writefile{toc}{\contentsline {section}{\numberline {1}Obiettivi}{1}}
\@writefile{toc}{\contentsline {section}{\numberline {2}Apparato sperimentale}{1}}
\@writefile{lof}{\contentsline {subfigure}{\numberline{(a)}{\ignorespaces {Schema ottico per la lente convergente.}}}{1}}
\@writefile{lof}{\contentsline {subfigure}{\numberline{(b)}{\ignorespaces {Schema ottico per la lente divergente. Notare che la sorgente per la lente divergente \IeC {\`e} virtuale.}}}{1}}
\@writefile{toc}{\contentsline {section}{\numberline {3}Richiami teorici}{2}}
\@writefile{toc}{\contentsline {section}{\numberline {4}Dati raccolti}{2}}
\providecommand*\caption@xref[2]{\@setref\relax\@undefined{#1}}
\newlabel{tab:newTable}{{1c}{2}}
\newlabel{sub@tab:newTable}{{(c)}{c}}
\newlabel{tab:newTable}{{1d}{2}}
\newlabel{sub@tab:newTable}{{(d)}{d}}
\@writefile{lof}{\contentsline {subfigure}{\numberline{(c)}{\ignorespaces {Misure di $p$ e $q$ per una lente convergente}}}{2}}
\@writefile{lof}{\contentsline {subfigure}{\numberline{(d)}{\ignorespaces {Misure di $p$ e $q$ per una lente divergente}}}{2}}
\@writefile{toc}{\contentsline {section}{\numberline {5}Analisi dei dati}{3}}
\@writefile{lof}{\contentsline {figure}{\numberline {1}{\ignorespaces (La retta tratteggiata indica la previsione teorica)\relax }}{3}}
\@writefile{lof}{\contentsline {figure}{\numberline {2}{\ignorespaces (La retta tratteggiata indica la previsione teorica)\relax }}{4}}
\@writefile{toc}{\contentsline {section}{\numberline {6}Conclusioni}{4}}
