\relax 
\@writefile{toc}{\contentsline {section}{\numberline {1}Obiettivi}{1}}
\@writefile{toc}{\contentsline {section}{\numberline {2}Apparato sperimentale}{1}}
\@writefile{toc}{\contentsline {section}{\numberline {3}Richiami teorici}{1}}
\@writefile{toc}{\contentsline {section}{\numberline {4}Dati raccolti}{2}}
\@writefile{toc}{\contentsline {section}{\numberline {5}Analisi dei dati}{3}}
\@writefile{toc}{\contentsline {subsection}{\numberline {5.1}Oscillazioni di un pendolo singolo}{3}}
\@writefile{toc}{\contentsline {subsubsection}{\numberline {5.1.1}Oscillazione libera}{3}}
\@writefile{toc}{\contentsline {subsubsection}{\numberline {5.1.2}Oscillazione smorzata}{4}}
\@writefile{toc}{\contentsline {subsection}{\numberline {5.2}Pendoli in fase e controfase}{5}}
\@writefile{toc}{\contentsline {subsection}{\numberline {5.3}Battimenti}{6}}
\@writefile{toc}{\contentsline {section}{\numberline {6}Conclusioni}{8}}
