\relax 
\@writefile{toc}{\contentsline {section}{\numberline {1}Obiettivi}{1}}
\@writefile{toc}{\contentsline {section}{\numberline {2}Apparato sperimentale}{1}}
\@writefile{lof}{\contentsline {subfigure}{\numberline{(a)}{\ignorespaces {Schematizzazione dell'apparato per la misura dell'indice di rifrazione del plexiglass. L'angolo di incidenza $\theta _{\rm i}$ (di rifrazione $\theta _{\rm r}$) \`e l'angolo formato dal raggio luminoso incidente (rifratto) con la normale alla superficie di separazione tra i due mezzi.}}}{1}}
\@writefile{lof}{\contentsline {subfigure}{\numberline{(b)}{\ignorespaces {Schematizzazione dell'apparato per la misura dell'indice di rifrazione dell'acqua. Le grandezze $q$ e $p$ sono definite, rispettivamente come la distanza dal vertice del diottro della sorgente e dell'immagine (a fuoco sullo schermo).}}}{1}}
\@writefile{toc}{\contentsline {section}{\numberline {3}Dati raccolti}{2}}
\providecommand*\caption@xref[2]{\@setref\relax\@undefined{#1}}
\newlabel{tab:newTable}{{1c}{2}}
\newlabel{sub@tab:newTable}{{(c)}{c}}
\newlabel{tab:newTable}{{1d}{2}}
\newlabel{sub@tab:newTable}{{(d)}{d}}
\@writefile{lof}{\contentsline {subfigure}{\numberline{(c)}{\ignorespaces {Misure effettuate sul semicilindro di plexiglass}}}{2}}
\@writefile{lof}{\contentsline {subfigure}{\numberline{(d)}{\ignorespaces {Misure effettuate sul diottro sferico}}}{2}}
\@writefile{toc}{\contentsline {section}{\numberline {4}Analisi dei dati}{3}}
\@writefile{toc}{\contentsline {subsection}{\numberline {4.1}Plexiglass}{3}}
\@writefile{lof}{\contentsline {figure}{\numberline {1}{\ignorespaces Plot delle misure effettuate con relativo fit grafico\relax }}{3}}
\@writefile{toc}{\contentsline {subsection}{\numberline {4.2}Acqua}{4}}
\@writefile{lof}{\contentsline {figure}{\numberline {2}{\ignorespaces Plot delle misure effettuate con relativo fit grafico\relax }}{4}}
\@writefile{toc}{\contentsline {section}{\numberline {5}Conclusioni}{4}}
